{
  "version": "15.0.7",
  "vulnerabilities": [
    {
      "id": ":SKIP:",
      "category": "sast",
      "name": "Network_Mode should be 'awsvpc' in ecs_task_definition. AWS VPCs provides the controls to facilitate a formal process for approving and testing all network connections and changes to the firewall and router configurations",
      "description": "'ecs_taskdefinition.network_mode' is 'host'",
      "cve": "kics_id:01aec7c2-3e4d-4274-ae47-2b8fea22fd1f:34:0",
      "severity": "Critical",
      "scanner": {
        "id": "kics",
        "name": "kics"
      },
      "location": {
        "file": "aws/ecs.yml",
        "start_line": 34
      },
      "identifiers": [
        {
          "type": "kics_id",
          "name": "ECS Task Definition Network Mode Not Recommended",
          "value": "01aec7c2-3e4d-4274-ae47-2b8fea22fd1f",
          "url": "https://docs.ansible.com/ansible/latest/collections/community/aws/ecs_taskdefinition_module.html#parameter-network_mode"
        }
      ]
    },
    {
      "id": ":SKIP:",
      "category": "sast",
      "name": "Checks if backup configuration is enabled for all Cloud SQL Database instances",
      "description": "gcp_sql_instance.settings.backup_configuration is undefined",
      "cve": "kics_id:0c82eae2-aca0-401f-93e4-fb37a0f9e5e8:8:0",
      "severity": "Critical",
      "scanner": {
        "id": "kics",
        "name": "kics"
      },
      "location": {
        "file": "gcp/sql.yml",
        "start_line": 8
      },
      "identifiers": [
        {
          "type": "kics_id",
          "name": "SQL DB Instance Backup Disabled",
          "value": "0c82eae2-aca0-401f-93e4-fb37a0f9e5e8",
          "url": "https://docs.ansible.com/ansible/latest/collections/google/cloud/gcp_sql_instance_module.html#parameter-settings/backup_configuration/enabled"
        }
      ]
    },
    {
      "id": ":SKIP:",
      "category": "sast",
      "name": "IAM Database Auth Enabled should be configured to true when using compatible engine and version",
      "description": "rds_instance.enable_iam_database_authentication is undefined",
      "cve": "kics_id:0ed012a4-9199-43d2-b9e4-9bd049a48aa4:8:0",
      "severity": "Critical",
      "scanner": {
        "id": "kics",
        "name": "kics"
      },
      "location": {
        "file": "aws/rds.yml",
        "start_line": 8
      },
      "identifiers": [
        {
          "type": "kics_id",
          "name": "IAM Database Auth Not Enabled",
          "value": "0ed012a4-9199-43d2-b9e4-9bd049a48aa4",
          "url": "https://docs.ansible.com/ansible/latest/collections/community/aws/rds_instance_module.html"
        }
      ]
    },
    {
      "id": ":SKIP:",
      "category": "sast",
      "name": "Kubernetes Engine Clusters must have Stackdriver Logging enabled, which means the attribute 'logging_service' must be defined and different from 'none'",
      "description": "gcp_container_cluster.logging_service is undefined",
      "cve": "kics_id:19c9e2a0-fc33-4264-bba1-e3682661e8f7:12:0",
      "severity": "Critical",
      "scanner": {
        "id": "kics",
        "name": "kics"
      },
      "location": {
        "file": "gcp/k8s.yml",
        "start_line": 12
      },
      "identifiers": [
        {
          "type": "kics_id",
          "name": "Stackdriver Logging Disabled",
          "value": "19c9e2a0-fc33-4264-bba1-e3682661e8f7",
          "url": "https://docs.ansible.com/ansible/latest/collections/google/cloud/gcp_container_cluster_module.html"
        }
      ]
    },
    {
      "id": ":SKIP:",
      "category": "sast",
      "name": "Kubernetes Clusters must be created with Client Certificate enabled, which means 'master_auth' must have 'client_certificate_config' with the attribute 'issue_client_certificate' equal to true",
      "description": "gcp_container_cluster.master_auth.client_certificate_config is undefined",
      "cve": "kics_id:20180133-a0d0-4745-bfe0-94049fbb12a9:15:0",
      "severity": "Critical",
      "scanner": {
        "id": "kics",
        "name": "kics"
      },
      "location": {
        "file": "gcp/k8s.yml",
        "start_line": 15
      },
      "identifiers": [
        {
          "type": "kics_id",
          "name": "Client Certificate Disabled",
          "value": "20180133-a0d0-4745-bfe0-94049fbb12a9",
          "url": "https://docs.ansible.com/ansible/latest/collections/google/cloud/gcp_container_cluster_module.html"
        }
      ]
    },
    {
      "id": ":SKIP:",
      "category": "sast",
      "name": "Kubernetes Engine Clusters must have Stackdriver Monitoring enabled, which means the attribute 'monitoring_service' must be defined and different than 'none'",
      "description": "gcp_container_cluster.monitoring_service is undefined",
      "cve": "kics_id:20dcd953-a8b8-4892-9026-9afa6d05a525:12:0",
      "severity": "Critical",
      "scanner": {
        "id": "kics",
        "name": "kics"
      },
      "location": {
        "file": "gcp/k8s.yml",
        "start_line": 12
      },
      "identifiers": [
        {
          "type": "kics_id",
          "name": "Stackdriver Monitoring Disabled",
          "value": "20dcd953-a8b8-4892-9026-9afa6d05a525",
          "url": "https://docs.ansible.com/ansible/latest/collections/google/cloud/gcp_container_cluster_module.html"
        }
      ]
    },
    {
      "id": ":SKIP:",
      "category": "sast",
      "name": "Admin user is enabled for Container Registry",
      "description": "azure_rm_containerregistry.admin_user_enabled is true",
      "cve": "kics_id:29f35127-98e6-43af-8ec1-201b79f99604:9:0",
      "severity": "Critical",
      "scanner": {
        "id": "kics",
        "name": "kics"
      },
      "location": {
        "file": "azure/registry.yml",
        "start_line": 9
      },
      "identifiers": [
        {
          "type": "kics_id",
          "name": "Admin User Enabled For Container Registry",
          "value": "29f35127-98e6-43af-8ec1-201b79f99604",
          "url": "https://docs.ansible.com/ansible/latest/collections/azure/azcollection/azure_rm_containerregistry_module.html"
        }
      ]
    },
    {
      "id": ":SKIP:",
      "category": "sast",
      "name": "Storage Accounts should enforce the use of HTTPS",
      "description": "azure_rm_storageaccount.https_only is undefined (defaults to false)",
      "cve": "kics_id:2c99a474-2a3c-4c17-8294-53ffa5ed0522:18:0",
      "severity": "Critical",
      "scanner": {
        "id": "kics",
        "name": "kics"
      },
      "location": {
        "file": "azure/storage.yml",
        "start_line": 18
      },
      "identifiers": [
        {
          "type": "kics_id",
          "name": "Storage Account Not Forcing HTTPS",
          "value": "2c99a474-2a3c-4c17-8294-53ffa5ed0522",
          "url": "https://docs.ansible.com/ansible/latest/collections/azure/azcollection/azure_rm_storageaccount_module.html#parameter-https_only"
        }
      ]
    },
    {
      "id": ":SKIP:",
      "category": "sast",
      "name": "If the master key is null, empty, or undefined, then the SSE algorithm should be AES256. Conversely, if the SSE algorithm is AES256, then the master key should be null, empty, or undefined.",
      "description": "s3_bucket.encryption_key_id is undefined",
      "cve": "kics_id:309edc5b-5a59-42b4-a357-d4d098311fd4:36:0",
      "severity": "Critical",
      "scanner": {
        "id": "kics",
        "name": "kics"
      },
      "location": {
        "file": "aws/s3.yml",
        "start_line": 36
      },
      "identifiers": [
        {
          "type": "kics_id",
          "name": "S3 Bucket SSE Disabled",
          "value": "309edc5b-5a59-42b4-a357-d4d098311fd4",
          "url": "https://docs.ansible.com/ansible/latest/collections/amazon/aws/s3_bucket_module.html#parameter-encryption_key_id"
        }
      ]
    },
    {
      "id": ":SKIP:",
      "category": "sast",
      "name": "GCP - Google Kubernetes Engine (GKE) Basic Authentication must be disabled, which means the username and password provided in the master_auth block must be empty",
      "description": "gcp_container_cluster.master_auth.username is not empty",
      "cve": "kics_id:344bf8ab-9308-462b-a6b2-697432e40ba1:16:0",
      "severity": "Critical",
      "scanner": {
        "id": "kics",
        "name": "kics"
      },
      "location": {
        "file": "gcp/k8s.yml",
        "start_line": 16
      },
      "identifiers": [
        {
          "type": "kics_id",
          "name": "GKE Basic Authentication Enabled",
          "value": "344bf8ab-9308-462b-a6b2-697432e40ba1",
          "url": "https://docs.ansible.com/ansible/latest/collections/google/cloud/gcp_container_cluster_module.html"
        }
      ]
    },
    {
      "id": ":SKIP:",
      "category": "sast",
      "name": "GCP - Google Kubernetes Engine (GKE) Basic Authentication must be disabled, which means the username and password provided in the master_auth block must be empty",
      "description": "gcp_container_cluster.master_auth.password is not empty",
      "cve": "kics_id:344bf8ab-9308-462b-a6b2-697432e40ba1:17:0",
      "severity": "Critical",
      "scanner": {
        "id": "kics",
        "name": "kics"
      },
      "location": {
        "file": "gcp/k8s.yml",
        "start_line": 17
      },
      "identifiers": [
        {
          "type": "kics_id",
          "name": "GKE Basic Authentication Enabled",
          "value": "344bf8ab-9308-462b-a6b2-697432e40ba1",
          "url": "https://docs.ansible.com/ansible/latest/collections/google/cloud/gcp_container_cluster_module.html"
        }
      ]
    },
    {
      "id": ":SKIP:",
      "category": "sast",
      "name": "Storage Account should not be public to grant the principle of least privileges",
      "description": "azure_rm_storageaccount.network_acls.default_action is 'Allow'",
      "cve": "kics_id:35e2f133-a395-40de-a79d-b260d973d1bd:24:0",
      "severity": "Critical",
      "scanner": {
        "id": "kics",
        "name": "kics"
      },
      "location": {
        "file": "azure/storage.yml",
        "start_line": 24
      },
      "identifiers": [
        {
          "type": "kics_id",
          "name": "Public Storage Account",
          "value": "35e2f133-a395-40de-a79d-b260d973d1bd",
          "url": "https://docs.ansible.com/ansible/latest/collections/azure/azcollection/azure_rm_storageaccount_module.html#parameter-network_acls"
        }
      ]
    },
    {
      "id": ":SKIP:",
      "category": "sast",
      "name": "Checks if the S3 bucket is accessible for all users",
      "description": "s3_bucket.policy.Statement does make the bucket accessible to all AWS Accounts",
      "cve": "kics_id:3ab1f27d-52cc-4943-af1d-43c1939e739a:41:0",
      "severity": "Critical",
      "scanner": {
        "id": "kics",
        "name": "kics"
      },
      "location": {
        "file": "aws/s3.yml",
        "start_line": 41
      },
      "identifiers": [
        {
          "type": "kics_id",
          "name": "S3 Bucket Access to Any Principal",
          "value": "3ab1f27d-52cc-4943-af1d-43c1939e739a",
          "url": "https://docs.ansible.com/ansible/latest/collections/amazon/aws/s3_bucket_module.html#ansible-collections-amazon-aws-s3-bucket-module"
        }
      ]
    },
    {
      "id": ":SKIP:",
      "category": "sast",
      "name": "Checks if the S3 bucket is accessible for all users",
      "description": "s3_bucket.policy.Statement does make the bucket accessible to all AWS Accounts",
      "cve": "kics_id:3ab1f27d-52cc-4943-af1d-43c1939e739a:52:0",
      "severity": "Critical",
      "scanner": {
        "id": "kics",
        "name": "kics"
      },
      "location": {
        "file": "aws/s3.yml",
        "start_line": 52
      },
      "identifiers": [
        {
          "type": "kics_id",
          "name": "S3 Bucket Access to Any Principal",
          "value": "3ab1f27d-52cc-4943-af1d-43c1939e739a",
          "url": "https://docs.ansible.com/ansible/latest/collections/amazon/aws/s3_bucket_module.html#ansible-collections-amazon-aws-s3-bucket-module"
        }
      ]
    },
    {
      "id": ":SKIP:",
      "category": "sast",
      "name": "Kubernetes Clusters must be created with Private Clusters enabled, meaning the 'private_cluster_config' must be defined and the attributes 'enable_private_endpoint' and 'enable_private_nodes' must be true.",
      "description": "gcp_container_cluster.private_cluster_config is undefined",
      "cve": "kics_id:3b30e3d6-c99b-4318-b38f-b99db74578b5:12:0",
      "severity": "Critical",
      "scanner": {
        "id": "kics",
        "name": "kics"
      },
      "location": {
        "file": "gcp/k8s.yml",
        "start_line": 12
      },
      "identifiers": [
        {
          "type": "kics_id",
          "name": "Private Cluster Disabled",
          "value": "3b30e3d6-c99b-4318-b38f-b99db74578b5",
          "url": "https://docs.ansible.com/ansible/latest/collections/google/cloud/gcp_container_cluster_module.html"
        }
      ]
    },
    {
      "id": ":SKIP:",
      "category": "sast",
      "name": "Anonymous, public read access to a container and its blobs are enabled in Azure Blob Storage",
      "description": "azure_rm_storageblob.public_access is equal to 'blob' or 'container'",
      "cve": "kics_id:4d3817db-dd35-4de4-a80d-3867157e7f7f:10:0",
      "severity": "Critical",
      "scanner": {
        "id": "kics",
        "name": "kics"
      },
      "location": {
        "file": "azure/storage.yml",
        "start_line": 10
      },
      "identifiers": [
        {
          "type": "kics_id",
          "name": "Storage Container Is Publicly Accessible",
          "value": "4d3817db-dd35-4de4-a80d-3867157e7f7f",
          "url": "https://docs.ansible.com/ansible/latest/collections/azure/azcollection/azure_rm_storageblob_module.html#parameter-public_access"
        }
      ]
    },
    {
      "id": ":SKIP:",
      "category": "sast",
      "name": "Azurerm Container Registry should contain associated locks, which means 'azure_rm_lock.managed_resource_id' or 'azure_rm_lock.resource_group' association should be defined",
      "description": "'azure_rm_containerregistry' is not referenced by an existing lock",
      "cve": "kics_id:581dae78-307d-45d5-aae4-fe2b0db267a5:5:0",
      "severity": "Critical",
      "scanner": {
        "id": "kics",
        "name": "kics"
      },
      "location": {
        "file": "azure/registry.yml",
        "start_line": 5
      },
      "identifiers": [
        {
          "type": "kics_id",
          "name": "Azure Container Registry With No Locks",
          "value": "581dae78-307d-45d5-aae4-fe2b0db267a5",
          "url": "https://docs.ansible.com/ansible/latest/collections/azure/azcollection/azure_rm_lock_module.html"
        }
      ]
    },
    {
      "id": ":SKIP:",
      "category": "sast",
      "name": "AWS S3 Storage should be protected with SSE (Server-Side Encryption)",
      "description": "s3_bucket.encryption is 'none'",
      "cve": "kics_id:594f54e7-f744-45ab-93e4-c6dbaf6cd571:36:0",
      "severity": "Critical",
      "scanner": {
        "id": "kics",
        "name": "kics"
      },
      "location": {
        "file": "aws/s3.yml",
        "start_line": 36
      },
      "identifiers": [
        {
          "type": "kics_id",
          "name": "S3 Bucket Without Server-side-encryption",
          "value": "594f54e7-f744-45ab-93e4-c6dbaf6cd571",
          "url": "https://docs.ansible.com/ansible/latest/collections/amazon/aws/s3_bucket_module.html"
        }
      ]
    },
    {
      "id": ":SKIP:",
      "category": "sast",
      "name": "The CA certificate Identifier must be 'rds-ca-2019'.",
      "description": "rds_instance.ca_certificate_identifier is undefined",
      "cve": "kics_id:5eccd62d-8b4d-46d3-83ea-1879f3cbd3ce:8:0",
      "severity": "Critical",
      "scanner": {
        "id": "kics",
        "name": "kics"
      },
      "location": {
        "file": "aws/rds.yml",
        "start_line": 8
      },
      "identifiers": [
        {
          "type": "kics_id",
          "name": "CA Certificate Identifier Is Outdated",
          "value": "5eccd62d-8b4d-46d3-83ea-1879f3cbd3ce",
          "url": "https://docs.ansible.com/ansible/latest/collections/community/aws/rds_instance_module.html#parameter-ca_certificate_identifier"
        }
      ]
    },
    {
      "id": ":SKIP:",
      "category": "sast",
      "name": "S3 Buckets should not be readable to any authenticated user",
      "description": "aws_s3 has read access for all authenticated users",
      "cve": "kics_id:75480b31-f349-4b9a-861f-bce19588e674:21:0",
      "severity": "Critical",
      "scanner": {
        "id": "kics",
        "name": "kics"
      },
      "location": {
        "file": "aws/s3.yml",
        "start_line": 21
      },
      "identifiers": [
        {
          "type": "kics_id",
          "name": "S3 Bucket ACL Allows Read to Any Authenticated User",
          "value": "75480b31-f349-4b9a-861f-bce19588e674",
          "url": "https://docs.ansible.com/ansible/latest/collections/amazon/aws/aws_s3_module.html#parameter-permission"
        }
      ]
    },
    {
      "id": ":SKIP:",
      "category": "sast",
      "name": "Cloud SQL instances should not be publicly accessible.",
      "description": "gcp_sql_instance.settings.ip_configuration.authorized_networks.name={{anyone}}.value address is not restricted: '0.0.0.0'",
      "cve": "kics_id:7d7054c0-3a52-4e9b-b9ff-cbfe16a2378b:12:0",
      "severity": "Critical",
      "scanner": {
        "id": "kics",
        "name": "kics"
      },
      "location": {
        "file": "gcp/sql.yml",
        "start_line": 12
      },
      "identifiers": [
        {
          "type": "kics_id",
          "name": "SQL DB Instance Publicly Accessible",
          "value": "7d7054c0-3a52-4e9b-b9ff-cbfe16a2378b",
          "url": "https://docs.ansible.com/ansible/latest/collections/google/cloud/gcp_sql_instance_module.html"
        }
      ]
    },
    {
      "id": ":SKIP:",
      "category": "sast",
      "name": "ECS Services must not have Admin roles, which means the attribute 'role' must not be an admin role",
      "description": "ecs_service.role is an admin role",
      "cve": "kics_id:7db727c1-1720-468e-b80e-06697f71e09e:11:0",
      "severity": "Critical",
      "scanner": {
        "id": "kics",
        "name": "kics"
      },
      "location": {
        "file": "aws/ecs.yml",
        "start_line": 11
      },
      "identifiers": [
        {
          "type": "kics_id",
          "name": "ECS Service Admin Role Is Present",
          "value": "7db727c1-1720-468e-b80e-06697f71e09e",
          "url": "https://docs.ansible.com/ansible/latest/collections/community/aws/ecs_service_module.html"
        }
      ]
    },
    {
      "id": ":SKIP:",
      "category": "sast",
      "name": "AWS DB Instance should have its storage encrypted by setting the parameter to 'true'. The storage_encrypted default value is 'false'.",
      "description": "rds_instance.storage_encrypted is undefined",
      "cve": "kics_id:7dfb316c-a6c2-454d-b8a2-97f147b0c0ff:8:0",
      "severity": "Critical",
      "scanner": {
        "id": "kics",
        "name": "kics"
      },
      "location": {
        "file": "aws/rds.yml",
        "start_line": 8
      },
      "identifiers": [
        {
          "type": "kics_id",
          "name": "DB Instance Storage Not Encrypted",
          "value": "7dfb316c-a6c2-454d-b8a2-97f147b0c0ff",
          "url": "https://docs.ansible.com/ansible/latest/collections/community/aws/rds_instance_module.html"
        }
      ]
    },
    {
      "id": ":SKIP:",
      "category": "sast",
      "name": "Compute instances shouldn't be accessible from the Internet.",
      "description": "gcp_compute_instance.network_interfaces.access_configs is defined",
      "cve": "kics_id:829f1c60-2bab-44c6-8a21-5cd9d39a2c82:26:0",
      "severity": "Critical",
      "scanner": {
        "id": "kics",
        "name": "kics"
      },
      "location": {
        "file": "gcp/compute.yml",
        "start_line": 26
      },
      "identifiers": [
        {
          "type": "kics_id",
          "name": "Compute Instance Is Publicly Accessible",
          "value": "829f1c60-2bab-44c6-8a21-5cd9d39a2c82",
          "url": "https://docs.ansible.com/ansible/latest/collections/google/cloud/gcp_compute_instance_module.html#parameter-network_interfaces/access_configs"
        }
      ]
    },
    {
      "id": ":SKIP:",
      "category": "sast",
      "name": "Kubernetes Engine Clusters must have Network Policy enabled, meaning that the attribute 'network_policy.enabled' must be true and the attribute 'addons_config.network_policy_config.disabled' must be false",
      "description": "gcp_container_cluster.addons_config is undefined",
      "cve": "kics_id:98e04ca0-34f5-4c74-8fec-d2e611ce2790:12:0",
      "severity": "Critical",
      "scanner": {
        "id": "kics",
        "name": "kics"
      },
      "location": {
        "file": "gcp/k8s.yml",
        "start_line": 12
      },
      "identifiers": [
        {
          "type": "kics_id",
          "name": "Network Policy Disabled",
          "value": "98e04ca0-34f5-4c74-8fec-d2e611ce2790",
          "url": "https://docs.ansible.com/ansible/latest/collections/google/cloud/gcp_container_cluster_module.html"
        }
      ]
    },
    {
      "id": ":SKIP:",
      "category": "sast",
      "name": "Kubernetes Engine Clusters must have Network Policy enabled, meaning that the attribute 'network_policy.enabled' must be true and the attribute 'addons_config.network_policy_config.disabled' must be false",
      "description": "gcp_container_cluster.network_policy is undefined",
      "cve": "kics_id:98e04ca0-34f5-4c74-8fec-d2e611ce2790:12:0",
      "severity": "Critical",
      "scanner": {
        "id": "kics",
        "name": "kics"
      },
      "location": {
        "file": "gcp/k8s.yml",
        "start_line": 12
      },
      "identifiers": [
        {
          "type": "kics_id",
          "name": "Network Policy Disabled",
          "value": "98e04ca0-34f5-4c74-8fec-d2e611ce2790",
          "url": "https://docs.ansible.com/ansible/latest/collections/google/cloud/gcp_container_cluster_module.html"
        }
      ]
    },
    {
      "id": ":SKIP:",
      "category": "sast",
      "name": "S3 Buckets should not be readable to all users",
      "description": "aws_s3 has read access for all user groups",
      "cve": "kics_id:a1ef9d2e-4163-40cb-bd92-04f0d602a15d:14:0",
      "severity": "Critical",
      "scanner": {
        "id": "kics",
        "name": "kics"
      },
      "location": {
        "file": "aws/s3.yml",
        "start_line": 14
      },
      "identifiers": [
        {
          "type": "kics_id",
          "name": "S3 Bucket ACL Allows Read to All Users",
          "value": "a1ef9d2e-4163-40cb-bd92-04f0d602a15d",
          "url": "https://docs.ansible.com/ansible/latest/collections/amazon/aws/aws_s3_module.html#parameter-permission"
        }
      ]
    },
    {
      "id": ":SKIP:",
      "category": "sast",
      "name": "S3 Buckets should not be readable to all users",
      "description": "aws_s3 has read access for all user groups",
      "cve": "kics_id:a1ef9d2e-4163-40cb-bd92-04f0d602a15d:7:0",
      "severity": "Critical",
      "scanner": {
        "id": "kics",
        "name": "kics"
      },
      "location": {
        "file": "aws/s3.yml",
        "start_line": 7
      },
      "identifiers": [
        {
          "type": "kics_id",
          "name": "S3 Bucket ACL Allows Read to All Users",
          "value": "a1ef9d2e-4163-40cb-bd92-04f0d602a15d",
          "url": "https://docs.ansible.com/ansible/latest/collections/amazon/aws/aws_s3_module.html#parameter-permission"
        }
      ]
    },
    {
      "id": ":SKIP:",
      "category": "sast",
      "name": "EC2 Instance should not have a public IP address.",
      "description": "ec2_instance.network.assign_public_ip is 'true'",
      "cve": "kics_id:a8b0c58b-cd25-4b53-9ad0-55bca0be0bc1:10:0",
      "severity": "Critical",
      "scanner": {
        "id": "kics",
        "name": "kics"
      },
      "location": {
        "file": "aws/ec2.yml",
        "start_line": 10
      },
      "identifiers": [
        {
          "type": "kics_id",
          "name": "EC2 Instance Has Public IP",
          "value": "a8b0c58b-cd25-4b53-9ad0-55bca0be0bc1",
          "url": "https://docs.ansible.com/ansible/latest/collections/amazon/aws/ec2_module.html#parameter-assign_public_ip"
        }
      ]
    },
    {
      "id": ":SKIP:",
      "category": "sast",
      "name": "IAM policy should not grant full permissions to resources from the get-go, instead of granting permissions gradually as necessary.",
      "description": "'policy.Statement.Resource' and 'policy.Statement.Action' are equal to '*'",
      "cve": "kics_id:b5ed026d-a772-4f07-97f9-664ba0b116f8:7:0",
      "severity": "Critical",
      "scanner": {
        "id": "kics",
        "name": "kics"
      },
      "location": {
        "file": "aws/iam.yml",
        "start_line": 7
      },
      "identifiers": [
        {
          "type": "kics_id",
          "name": "IAM Policy Grants Full Permissions",
          "value": "b5ed026d-a772-4f07-97f9-664ba0b116f8",
          "url": "https://docs.ansible.com/ansible/latest/collections/community/aws/iam_managed_policy_module.html"
        }
      ]
    },
    {
      "id": ":SKIP:",
      "category": "sast",
      "name": "Cloud SQL Database Instance should have SSL enabled",
      "description": "gcp_sql_instance.settings.ip_configuration.require_ssl is undefined",
      "cve": "kics_id:d0f7da39-a2d5-4c78-bb85-4b7f338b3cbb:9:0",
      "severity": "Critical",
      "scanner": {
        "id": "kics",
        "name": "kics"
      },
      "location": {
        "file": "gcp/sql.yml",
        "start_line": 9
      },
      "identifiers": [
        {
          "type": "kics_id",
          "name": "SQL DB Instance With SSL Disabled",
          "value": "d0f7da39-a2d5-4c78-bb85-4b7f338b3cbb",
          "url": "https://docs.ansible.com/ansible/latest/collections/google/cloud/gcp_sql_instance_module.html#parameter-settings/ip_configuration/require_ssl"
        }
      ]
    },
    {
      "id": ":SKIP:",
      "category": "sast",
      "name": "Master authorized networks must be enabled in GKE clusters",
      "description": "gcp_container_cluster.master_authorized_networks_config is undefined",
      "cve": "kics_id:d43366c5-80b0-45de-bbe8-2338f4ab0a83:12:0",
      "severity": "Critical",
      "scanner": {
        "id": "kics",
        "name": "kics"
      },
      "location": {
        "file": "gcp/k8s.yml",
        "start_line": 12
      },
      "identifiers": [
        {
          "type": "kics_id",
          "name": "GKE Master Authorized Networks Disabled",
          "value": "d43366c5-80b0-45de-bbe8-2338f4ab0a83",
          "url": "https://docs.ansible.com/ansible/latest/collections/google/cloud/gcp_container_cluster_module.html#parameter-master_authorized_networks_config/enabled"
        }
      ]
    },
    {
      "id": ":SKIP:",
      "category": "sast",
      "name": "IAM policies shouldn't allow full administrative privileges (for all resources)",
      "description": "iam_managed_policy.policy.Statement.Action contains '*'",
      "cve": "kics_id:e401d614-8026-4f4b-9af9-75d1197461ba:7:0",
      "severity": "Critical",
      "scanner": {
        "id": "kics",
        "name": "kics"
      },
      "location": {
        "file": "aws/iam.yml",
        "start_line": 7
      },
      "identifiers": [
        {
          "type": "kics_id",
          "name": "IAM Policies With Full Privileges",
          "value": "e401d614-8026-4f4b-9af9-75d1197461ba",
          "url": "https://docs.ansible.com/ansible/latest/collections/community/aws/iam_managed_policy_module.html"
        }
      ]
    },
    {
      "id": ":SKIP:",
      "category": "sast",
      "name": "Kubernetes Clusters must be created with Alias IP ranges enabled, which means the attribute 'ip_allocation_policy' must be defined and the subattribute 'use_ip_aliases' must be set to 'yes'.",
      "description": "gcp_container_cluster.ip_allocation_policy is undefined",
      "cve": "kics_id:ed672a9f-fbf0-44d8-a47d-779501b0db05:12:0",
      "severity": "Critical",
      "scanner": {
        "id": "kics",
        "name": "kics"
      },
      "location": {
        "file": "gcp/k8s.yml",
        "start_line": 12
      },
      "identifiers": [
        {
          "type": "kics_id",
          "name": "IP Aliasing Disabled",
          "value": "ed672a9f-fbf0-44d8-a47d-779501b0db05",
          "url": "https://docs.ansible.com/ansible/latest/collections/google/cloud/gcp_container_cluster_module.html"
        }
      ]
    },
    {
      "id": ":SKIP:",
      "category": "sast",
      "name": "Check if all IPs are allowed, check from start 0.0.0.0 to end 255.255.255.255.",
      "description": "azure_rm_sqlfirewallrule should not allow all IPs (range from start_ip_address to end_ip_address)",
      "cve": "kics_id:f4e9ff70-0f3b-4c50-a713-26cbe7ec4039:10:0",
      "severity": "Critical",
      "scanner": {
        "id": "kics",
        "name": "kics"
      },
      "location": {
        "file": "azure/sql.yml",
        "start_line": 10
      },
      "identifiers": [
        {
          "type": "kics_id",
          "name": "SQLServer Ingress From Any IP",
          "value": "f4e9ff70-0f3b-4c50-a713-26cbe7ec4039",
          "url": "https://docs.ansible.com/ansible/latest/collections/azure/azcollection/azure_rm_sqlfirewallrule_module.html"
        }
      ]
    },
    {
      "id": ":SKIP:",
      "category": "sast",
      "name": "Kubernetes Clusters must be configured with labels, which means the attribute 'resource_labels' must be defined",
      "description": "google.cloud.gcp_container_cluster is undefined and null",
      "cve": "kics_id:fbe9b2d0-a2b7-47a1-a534-03775f3013f7:12:0",
      "severity": "Critical",
      "scanner": {
        "id": "kics",
        "name": "kics"
      },
      "location": {
        "file": "gcp/k8s.yml",
        "start_line": 12
      },
      "identifiers": [
        {
          "type": "kics_id",
          "name": "Cluster Labels Disabled",
          "value": "fbe9b2d0-a2b7-47a1-a534-03775f3013f7",
          "url": "https://docs.ansible.com/ansible/latest/collections/google/cloud/gcp_container_cluster_module.html"
        }
      ]
    },
    {
      "id": ":SKIP:",
      "category": "sast",
      "name": "VM Instance should block project-wide SSH keys",
      "description": "gcp_compute_instance.metadata.block-project-ssh-keys is undefined",
      "cve": "kics_id:099b4411-d11e-4537-a0fc-146b19762a79:19:0",
      "severity": "Medium",
      "scanner": {
        "id": "kics",
        "name": "kics"
      },
      "location": {
        "file": "gcp/compute.yml",
        "start_line": 19
      },
      "identifiers": [
        {
          "type": "kics_id",
          "name": "Project-wide SSH Keys Are Enabled In VM Instances",
          "value": "099b4411-d11e-4537-a0fc-146b19762a79",
          "url": "https://docs.ansible.com/ansible/latest/collections/google/cloud/gcp_compute_instance_module.html"
        }
      ]
    },
    {
      "id": ":SKIP:",
      "category": "sast",
      "name": "Azure Container Service (AKS) instance should have role-based access control (RBAC) enabled",
      "description": "azure_rm_aks.enable_rbac is undefined",
      "cve": "kics_id:149fa56c-4404-4f90-9e25-d34b676d5b39:6:0",
      "severity": "Medium",
      "scanner": {
        "id": "kics",
        "name": "kics"
      },
      "location": {
        "file": "azure/aks.yml",
        "start_line": 6
      },
      "identifiers": [
        {
          "type": "kics_id",
          "name": "AKS RBAC Disabled",
          "value": "149fa56c-4404-4f90-9e25-d34b676d5b39",
          "url": "https://docs.ansible.com/ansible/latest/collections/azure/azcollection/azure_rm_aks_module.html"
        }
      ]
    },
    {
      "id": ":SKIP:",
      "category": "sast",
      "name": "Compute instances must be launched with Shielded VM enabled, which means the attribute 'shielded_instance_config' must be defined and its sub attributes 'enable_secure_boot', 'enable_vtpm' and 'enable_integrity_monitoring' must be set to true",
      "description": "gcp_compute_instance.shielded_instance_config is undefined",
      "cve": "kics_id:18d3a83d-4414-49dc-90ea-f0387b2856cc:7:0",
      "severity": "Medium",
      "scanner": {
        "id": "kics",
        "name": "kics"
      },
      "location": {
        "file": "gcp/compute.yml",
        "start_line": 7
      },
      "identifiers": [
        {
          "type": "kics_id",
          "name": "Shielded VM Disabled",
          "value": "18d3a83d-4414-49dc-90ea-f0387b2856cc",
          "url": "https://docs.ansible.com/ansible/latest/collections/google/cloud/gcp_compute_instance_module.html"
        }
      ]
    },
    {
      "id": ":SKIP:",
      "category": "sast",
      "name": "Instances must not be configured to use the Default Service Account, that has full access to all Cloud APIs, which means the attribute 'service_account_email' must be defined. Additionally, it must not be empty and must also not be a default Google Com...",
      "description": "gcp_compute_instance.service_account_email is undefined",
      "cve": "kics_id:2775e169-e708-42a9-9305-b58aadd2c4dd:7:0",
      "severity": "Medium",
      "scanner": {
        "id": "kics",
        "name": "kics"
      },
      "location": {
        "file": "gcp/compute.yml",
        "start_line": 7
      },
      "identifiers": [
        {
          "type": "kics_id",
          "name": "Using Default Service Account",
          "value": "2775e169-e708-42a9-9305-b58aadd2c4dd",
          "url": "https://docs.ansible.com/ansible/latest/collections/google/cloud/gcp_compute_instance_module.html"
        }
      ]
    },
    {
      "id": ":SKIP:",
      "category": "sast",
      "name": "Azure SQL Server Accessibility should be set to a minimal address range to grant the principle of least privileges, which means the difference between the values of the 'end_ip_address' and 'start_ip_address' should be less than 256. Additionally, both...",
      "description": "The difference between the value of azure_rm_sqlfirewallrule end_ip_address and start_ip_address is greater than or equal to 256",
      "cve": "kics_id:3f23c96c-f9f5-488d-9b17-605b8da5842f:5:0",
      "severity": "Medium",
      "scanner": {
        "id": "kics",
        "name": "kics"
      },
      "location": {
        "file": "azure/sql.yml",
        "start_line": 5
      },
      "identifiers": [
        {
          "type": "kics_id",
          "name": "Unrestricted SQL Server Access",
          "value": "3f23c96c-f9f5-488d-9b17-605b8da5842f",
          "url": "https://docs.ansible.com/ansible/latest/collections/azure/azcollection/azure_rm_sqlfirewallrule_module.html"
        }
      ]
    },
    {
      "id": ":SKIP:",
      "category": "sast",
      "name": "ECR should have an image tag be immutable. This prevents image tags from being overwritten.",
      "description": "ecs_ecr.image_tag_mutability is undefined",
      "cve": "kics_id:60bfbb8a-c72f-467f-a6dd-a46b7d612789:4:0",
      "severity": "Medium",
      "scanner": {
        "id": "kics",
        "name": "kics"
      },
      "location": {
        "file": "aws/ecr.yml",
        "start_line": 4
      },
      "identifiers": [
        {
          "type": "kics_id",
          "name": "ECR Image Tag Not Immutable",
          "value": "60bfbb8a-c72f-467f-a6dd-a46b7d612789",
          "url": "https://docs.ansible.com/ansible/latest/collections/community/aws/ecs_ecr_module.html"
        }
      ]
    },
    {
      "id": ":SKIP:",
      "category": "sast",
      "name": "Azure Kubernetes Service should have the proper network policy configuration to ensure the principle of least privileges, which means that 'network_profile.network_policy' should be defined",
      "description": "Azure AKS cluster network profile is undefined",
      "cve": "kics_id:8c3bedf1-c570-4c3b-b414-d068cd39a00c:6:0",
      "severity": "Medium",
      "scanner": {
        "id": "kics",
        "name": "kics"
      },
      "location": {
        "file": "azure/aks.yml",
        "start_line": 6
      },
      "identifiers": [
        {
          "type": "kics_id",
          "name": "AKS Network Policy Misconfigured",
          "value": "8c3bedf1-c570-4c3b-b414-d068cd39a00c",
          "url": "https://docs.ansible.com/ansible/latest/collections/azure/azcollection/azure_rm_aks_module.html#parameter-network_profile/network_policy"
        }
      ]
    },
    {
      "id": ":SKIP:",
      "category": "sast",
      "name": "S3 bucket should have versioning enabled",
      "description": "s3_bucket does not have versioning (defaults to false)",
      "cve": "kics_id:9232306a-f839-40aa-b3ef-b352001da9a5:26:0",
      "severity": "Medium",
      "scanner": {
        "id": "kics",
        "name": "kics"
      },
      "location": {
        "file": "aws/s3.yml",
        "start_line": 26
      },
      "identifiers": [
        {
          "type": "kics_id",
          "name": "S3 Bucket Without Versioning",
          "value": "9232306a-f839-40aa-b3ef-b352001da9a5",
          "url": "https://docs.ansible.com/ansible/latest/collections/amazon/aws/s3_bucket_module.html#parameter-versioning"
        }
      ]
    },
    {
      "id": ":SKIP:",
      "category": "sast",
      "name": "S3 bucket should have versioning enabled",
      "description": "s3_bucket does has versioning set to false",
      "cve": "kics_id:9232306a-f839-40aa-b3ef-b352001da9a5:29:0",
      "severity": "Medium",
      "scanner": {
        "id": "kics",
        "name": "kics"
      },
      "location": {
        "file": "aws/s3.yml",
        "start_line": 29
      },
      "identifiers": [
        {
          "type": "kics_id",
          "name": "S3 Bucket Without Versioning",
          "value": "9232306a-f839-40aa-b3ef-b352001da9a5",
          "url": "https://docs.ansible.com/ansible/latest/collections/amazon/aws/s3_bucket_module.html#parameter-versioning"
        }
      ]
    },
    {
      "id": ":SKIP:",
      "category": "sast",
      "name": "S3 bucket should have versioning enabled",
      "description": "s3_bucket does not have versioning (defaults to false)",
      "cve": "kics_id:9232306a-f839-40aa-b3ef-b352001da9a5:40:0",
      "severity": "Medium",
      "scanner": {
        "id": "kics",
        "name": "kics"
      },
      "location": {
        "file": "aws/s3.yml",
        "start_line": 40
      },
      "identifiers": [
        {
          "type": "kics_id",
          "name": "S3 Bucket Without Versioning",
          "value": "9232306a-f839-40aa-b3ef-b352001da9a5",
          "url": "https://docs.ansible.com/ansible/latest/collections/amazon/aws/s3_bucket_module.html#parameter-versioning"
        }
      ]
    },
    {
      "id": ":SKIP:",
      "category": "sast",
      "name": "S3 bucket should have versioning enabled",
      "description": "s3_bucket does not have versioning (defaults to false)",
      "cve": "kics_id:9232306a-f839-40aa-b3ef-b352001da9a5:50:0",
      "severity": "Medium",
      "scanner": {
        "id": "kics",
        "name": "kics"
      },
      "location": {
        "file": "aws/s3.yml",
        "start_line": 50
      },
      "identifiers": [
        {
          "type": "kics_id",
          "name": "S3 Bucket Without Versioning",
          "value": "9232306a-f839-40aa-b3ef-b352001da9a5",
          "url": "https://docs.ansible.com/ansible/latest/collections/amazon/aws/s3_bucket_module.html#parameter-versioning"
        }
      ]
    },
    {
      "id": ":SKIP:",
      "category": "sast",
      "name": "Server Access Logging should be enabled on S3 Buckets so that all changes are logged and trackable",
      "description": "s3_bucket.debug_botocore_endpoint_logs is undefined",
      "cve": "kics_id:c3b9f7b0-f5a0-49ec-9cbc-f1e346b7274d:26:0",
      "severity": "Medium",
      "scanner": {
        "id": "kics",
        "name": "kics"
      },
      "location": {
        "file": "aws/s3.yml",
        "start_line": 26
      },
      "identifiers": [
        {
          "type": "kics_id",
          "name": "S3 Bucket Logging Disabled",
          "value": "c3b9f7b0-f5a0-49ec-9cbc-f1e346b7274d",
          "url": "https://docs.ansible.com/ansible/latest/collections/amazon/aws/s3_bucket_module.html#parameter-debug_botocore_endpoint_logs"
        }
      ]
    },
    {
      "id": ":SKIP:",
      "category": "sast",
      "name": "Server Access Logging should be enabled on S3 Buckets so that all changes are logged and trackable",
      "description": "s3_bucket.debug_botocore_endpoint_logs is undefined",
      "cve": "kics_id:c3b9f7b0-f5a0-49ec-9cbc-f1e346b7274d:40:0",
      "severity": "Medium",
      "scanner": {
        "id": "kics",
        "name": "kics"
      },
      "location": {
        "file": "aws/s3.yml",
        "start_line": 40
      },
      "identifiers": [
        {
          "type": "kics_id",
          "name": "S3 Bucket Logging Disabled",
          "value": "c3b9f7b0-f5a0-49ec-9cbc-f1e346b7274d",
          "url": "https://docs.ansible.com/ansible/latest/collections/amazon/aws/s3_bucket_module.html#parameter-debug_botocore_endpoint_logs"
        }
      ]
    },
    {
      "id": ":SKIP:",
      "category": "sast",
      "name": "Server Access Logging should be enabled on S3 Buckets so that all changes are logged and trackable",
      "description": "s3_bucket.debug_botocore_endpoint_logs is undefined",
      "cve": "kics_id:c3b9f7b0-f5a0-49ec-9cbc-f1e346b7274d:50:0",
      "severity": "Medium",
      "scanner": {
        "id": "kics",
        "name": "kics"
      },
      "location": {
        "file": "aws/s3.yml",
        "start_line": 50
      },
      "identifiers": [
        {
          "type": "kics_id",
          "name": "S3 Bucket Logging Disabled",
          "value": "c3b9f7b0-f5a0-49ec-9cbc-f1e346b7274d",
          "url": "https://docs.ansible.com/ansible/latest/collections/amazon/aws/s3_bucket_module.html#parameter-debug_botocore_endpoint_logs"
        }
      ]
    },
    {
      "id": ":SKIP:",
      "category": "sast",
      "name": "S3 Bucket allows public access",
      "description": "aws_s3.permission allows public access",
      "cve": "kics_id:c3e073c1-f65e-4d18-bd67-4a8f20ad1ab9:14:0",
      "severity": "Medium",
      "scanner": {
        "id": "kics",
        "name": "kics"
      },
      "location": {
        "file": "aws/s3.yml",
        "start_line": 14
      },
      "identifiers": [
        {
          "type": "kics_id",
          "name": "S3 Bucket With Public Access",
          "value": "c3e073c1-f65e-4d18-bd67-4a8f20ad1ab9",
          "url": "https://docs.ansible.com/ansible/latest/collections/amazon/aws/aws_s3_module.html#parameter-permission"
        }
      ]
    },
    {
      "id": ":SKIP:",
      "category": "sast",
      "name": "S3 Bucket allows public access",
      "description": "aws_s3.permission allows public access",
      "cve": "kics_id:c3e073c1-f65e-4d18-bd67-4a8f20ad1ab9:7:0",
      "severity": "Medium",
      "scanner": {
        "id": "kics",
        "name": "kics"
      },
      "location": {
        "file": "aws/s3.yml",
        "start_line": 7
      },
      "identifiers": [
        {
          "type": "kics_id",
          "name": "S3 Bucket With Public Access",
          "value": "c3e073c1-f65e-4d18-bd67-4a8f20ad1ab9",
          "url": "https://docs.ansible.com/ansible/latest/collections/amazon/aws/aws_s3_module.html#parameter-permission"
        }
      ]
    },
    {
      "id": ":SKIP:",
      "category": "sast",
      "name": "Ensure Storage Account is using the latest version of TLS encryption",
      "description": "azure_rm_storageaccount.minimum_tls_version is undefined",
      "cve": "kics_id:c62746cf-92d5-4649-9acf-7d48d086f2ee:18:0",
      "severity": "Medium",
      "scanner": {
        "id": "kics",
        "name": "kics"
      },
      "location": {
        "file": "azure/storage.yml",
        "start_line": 18
      },
      "identifiers": [
        {
          "type": "kics_id",
          "name": "Storage Account Not Using Latest TLS Encryption Version",
          "value": "c62746cf-92d5-4649-9acf-7d48d086f2ee",
          "url": "https://docs.ansible.com/ansible/latest/collections/azure/azcollection/azure_rm_storageaccount_module.html#parameter-minimum_tls_version"
        }
      ]
    },
    {
      "id": ":SKIP:",
      "category": "sast",
      "name": "Make sure that your Azure Storage Account access is limited to those who require it.",
      "description": "azure_rm_storageaccountnetworkAcls.network_acls.default_action is set to 'Allow'",
      "cve": "kics_id:ca4df748-613a-4fbf-9c76-f02cbd580307:18:0",
      "severity": "Medium",
      "scanner": {
        "id": "kics",
        "name": "kics"
      },
      "location": {
        "file": "azure/storage.yml",
        "start_line": 18
      },
      "identifiers": [
        {
          "type": "kics_id",
          "name": "Default Azure Storage Account Network Access Is Too Permissive",
          "value": "ca4df748-613a-4fbf-9c76-f02cbd580307",
          "url": "https://docs.ansible.com/ansible/latest/collections/azure/azcollection/azure_rm_storageaccount_module.html#parameter-public_network_access"
        }
      ]
    },
    {
      "id": ":SKIP:",
      "category": "sast",
      "name": "Azure Container Service (AKS) instance should have logging enabled to Azure Monitoring",
      "description": "azure_rm_aks.addon is undefined",
      "cve": "kics_id:d5e83b32-56dd-4247-8c2e-074f43b38a5e:6:0",
      "severity": "Medium",
      "scanner": {
        "id": "kics",
        "name": "kics"
      },
      "location": {
        "file": "azure/aks.yml",
        "start_line": 6
      },
      "identifiers": [
        {
          "type": "kics_id",
          "name": "AKS Monitoring Logging Disabled",
          "value": "d5e83b32-56dd-4247-8c2e-074f43b38a5e",
          "url": "https://docs.ansible.com/ansible/latest/collections/azure/azcollection/azure_rm_aks_module.html"
        }
      ]
    },
    {
      "id": ":SKIP:",
      "category": "sast",
      "name": "Kubernetes Engine Clusters should not be configured to use the default service account",
      "description": "'service_account' is missing",
      "cve": "kics_id:dc126833-125a-40fb-905a-ce5f2afde240:18:0",
      "severity": "Medium",
      "scanner": {
        "id": "kics",
        "name": "kics"
      },
      "location": {
        "file": "gcp/k8s.yml",
        "start_line": 18
      },
      "identifiers": [
        {
          "type": "kics_id",
          "name": "GKE Using Default Service Account",
          "value": "dc126833-125a-40fb-905a-ce5f2afde240",
          "url": "https://docs.ansible.com/ansible/latest/collections/google/cloud/gcp_container_cluster_module.html#parameter-node_config/service_account"
        }
      ]
    },
    {
      "id": ":SKIP:",
      "category": "sast",
      "name": "ECS Service should have at least 1 task running",
      "description": "%!&(string=community.aws.ecs_service)s.deployment_configuration is undefined",
      "cve": "kics_id:f5c45127-1d28-4b49-a692-0b97da1c3a84:5:0",
      "severity": "Medium",
      "scanner": {
        "id": "kics",
        "name": "kics"
      },
      "location": {
        "file": "aws/ecs.yml",
        "start_line": 5
      },
      "identifiers": [
        {
          "type": "kics_id",
          "name": "ECS Service Without Running Tasks",
          "value": "f5c45127-1d28-4b49-a692-0b97da1c3a84",
          "url": "https://docs.ansible.com/ansible/latest/collections/community/aws/ecs_service_module.html#ansible-collections-community-aws-ecs-service-module"
        }
      ]
    },
    {
      "id": ":SKIP:",
      "category": "sast",
      "name": "RDS instance should have automatic minor upgrades enabled, which means the attribute 'auto_minor_version_upgrade' must be set to true.",
      "description": "rds_instance.auto_minor_version_upgrade is false",
      "cve": "kics_id:857f8808-e96a-4ba8-a9b7-f2d4ec6cad94:15:0",
      "severity": "Info",
      "scanner": {
        "id": "kics",
        "name": "kics"
      },
      "location": {
        "file": "aws/rds.yml",
        "start_line": 15
      },
      "identifiers": [
        {
          "type": "kics_id",
          "name": "Automatic Minor Upgrades Disabled",
          "value": "857f8808-e96a-4ba8-a9b7-f2d4ec6cad94",
          "url": "https://docs.ansible.com/ansible/latest/collections/community/aws/rds_instance_module.html#parameter-auto_minor_version_upgrade"
        }
      ]
    }
  ],
  "dependency_files": [],
  "scan": {
    "analyzer": {
      "id": "kics",
      "name": "kics",
      "url": "https://gitlab.com/gitlab-org/security-products/analyzers/kics",
      "vendor": {
        "name": "GitLab"
      },
      "version": ":SKIP:"
    },
    "scanner": {
      "id": "kics",
      "name": "kics",
      "url": "https://github.com/Checkmarx/kics",
      "vendor": {
        "name": "GitLab"
      },
      "version": ":SKIP:"
    },
    "primary_identifiers": [
      {
        "type": "kics_id",
        "name": "ECS Task Definition Network Mode Not Recommended",
        "value": "01aec7c2-3e4d-4274-ae47-2b8fea22fd1f",
        "url": "https://docs.ansible.com/ansible/latest/collections/community/aws/ecs_taskdefinition_module.html#parameter-network_mode"
      },
      {
        "type": "kics_id",
        "name": "Project-wide SSH Keys Are Enabled In VM Instances",
        "value": "099b4411-d11e-4537-a0fc-146b19762a79",
        "url": "https://docs.ansible.com/ansible/latest/collections/google/cloud/gcp_compute_instance_module.html"
      },
      {
        "type": "kics_id",
        "name": "SQL DB Instance Backup Disabled",
        "value": "0c82eae2-aca0-401f-93e4-fb37a0f9e5e8",
        "url": "https://docs.ansible.com/ansible/latest/collections/google/cloud/gcp_sql_instance_module.html#parameter-settings/backup_configuration/enabled"
      },
      {
        "type": "kics_id",
        "name": "IAM Database Auth Not Enabled",
        "value": "0ed012a4-9199-43d2-b9e4-9bd049a48aa4",
        "url": "https://docs.ansible.com/ansible/latest/collections/community/aws/rds_instance_module.html"
      },
      {
        "type": "kics_id",
        "name": "AKS RBAC Disabled",
        "value": "149fa56c-4404-4f90-9e25-d34b676d5b39",
        "url": "https://docs.ansible.com/ansible/latest/collections/azure/azcollection/azure_rm_aks_module.html"
      },
      {
        "type": "kics_id",
        "name": "Shielded VM Disabled",
        "value": "18d3a83d-4414-49dc-90ea-f0387b2856cc",
        "url": "https://docs.ansible.com/ansible/latest/collections/google/cloud/gcp_compute_instance_module.html"
      },
      {
        "type": "kics_id",
        "name": "Stackdriver Logging Disabled",
        "value": "19c9e2a0-fc33-4264-bba1-e3682661e8f7",
        "url": "https://docs.ansible.com/ansible/latest/collections/google/cloud/gcp_container_cluster_module.html"
      },
      {
        "type": "kics_id",
        "name": "Client Certificate Disabled",
        "value": "20180133-a0d0-4745-bfe0-94049fbb12a9",
        "url": "https://docs.ansible.com/ansible/latest/collections/google/cloud/gcp_container_cluster_module.html"
      },
      {
        "type": "kics_id",
        "name": "Stackdriver Monitoring Disabled",
        "value": "20dcd953-a8b8-4892-9026-9afa6d05a525",
        "url": "https://docs.ansible.com/ansible/latest/collections/google/cloud/gcp_container_cluster_module.html"
      },
      {
        "type": "kics_id",
        "name": "Using Default Service Account",
        "value": "2775e169-e708-42a9-9305-b58aadd2c4dd",
        "url": "https://docs.ansible.com/ansible/latest/collections/google/cloud/gcp_compute_instance_module.html"
      },
      {
        "type": "kics_id",
        "name": "Admin User Enabled For Container Registry",
        "value": "29f35127-98e6-43af-8ec1-201b79f99604",
        "url": "https://docs.ansible.com/ansible/latest/collections/azure/azcollection/azure_rm_containerregistry_module.html"
      },
      {
        "type": "kics_id",
        "name": "Storage Account Not Forcing HTTPS",
        "value": "2c99a474-2a3c-4c17-8294-53ffa5ed0522",
        "url": "https://docs.ansible.com/ansible/latest/collections/azure/azcollection/azure_rm_storageaccount_module.html#parameter-https_only"
      },
      {
        "type": "kics_id",
        "name": "S3 Bucket SSE Disabled",
        "value": "309edc5b-5a59-42b4-a357-d4d098311fd4",
        "url": "https://docs.ansible.com/ansible/latest/collections/amazon/aws/s3_bucket_module.html#parameter-encryption_key_id"
      },
      {
        "type": "kics_id",
        "name": "GKE Basic Authentication Enabled",
        "value": "344bf8ab-9308-462b-a6b2-697432e40ba1",
        "url": "https://docs.ansible.com/ansible/latest/collections/google/cloud/gcp_container_cluster_module.html"
      },
      {
        "type": "kics_id",
        "name": "Public Storage Account",
        "value": "35e2f133-a395-40de-a79d-b260d973d1bd",
        "url": "https://docs.ansible.com/ansible/latest/collections/azure/azcollection/azure_rm_storageaccount_module.html#parameter-network_acls"
      },
      {
        "type": "kics_id",
        "name": "S3 Bucket Access to Any Principal",
        "value": "3ab1f27d-52cc-4943-af1d-43c1939e739a",
        "url": "https://docs.ansible.com/ansible/latest/collections/amazon/aws/s3_bucket_module.html#ansible-collections-amazon-aws-s3-bucket-module"
      },
      {
        "type": "kics_id",
        "name": "Private Cluster Disabled",
        "value": "3b30e3d6-c99b-4318-b38f-b99db74578b5",
        "url": "https://docs.ansible.com/ansible/latest/collections/google/cloud/gcp_container_cluster_module.html"
      },
      {
        "type": "kics_id",
        "name": "Unrestricted SQL Server Access",
        "value": "3f23c96c-f9f5-488d-9b17-605b8da5842f",
        "url": "https://docs.ansible.com/ansible/latest/collections/azure/azcollection/azure_rm_sqlfirewallrule_module.html"
      },
      {
        "type": "kics_id",
        "name": "Storage Container Is Publicly Accessible",
        "value": "4d3817db-dd35-4de4-a80d-3867157e7f7f",
        "url": "https://docs.ansible.com/ansible/latest/collections/azure/azcollection/azure_rm_storageblob_module.html#parameter-public_access"
      },
      {
        "type": "kics_id",
        "name": "Azure Container Registry With No Locks",
        "value": "581dae78-307d-45d5-aae4-fe2b0db267a5",
        "url": "https://docs.ansible.com/ansible/latest/collections/azure/azcollection/azure_rm_lock_module.html"
      },
      {
        "type": "kics_id",
        "name": "S3 Bucket Without Server-side-encryption",
        "value": "594f54e7-f744-45ab-93e4-c6dbaf6cd571",
        "url": "https://docs.ansible.com/ansible/latest/collections/amazon/aws/s3_bucket_module.html"
      },
      {
        "type": "kics_id",
        "name": "CA Certificate Identifier Is Outdated",
        "value": "5eccd62d-8b4d-46d3-83ea-1879f3cbd3ce",
        "url": "https://docs.ansible.com/ansible/latest/collections/community/aws/rds_instance_module.html#parameter-ca_certificate_identifier"
      },
      {
        "type": "kics_id",
        "name": "ECR Image Tag Not Immutable",
        "value": "60bfbb8a-c72f-467f-a6dd-a46b7d612789",
        "url": "https://docs.ansible.com/ansible/latest/collections/community/aws/ecs_ecr_module.html"
      },
      {
        "type": "kics_id",
        "name": "S3 Bucket ACL Allows Read to Any Authenticated User",
        "value": "75480b31-f349-4b9a-861f-bce19588e674",
        "url": "https://docs.ansible.com/ansible/latest/collections/amazon/aws/aws_s3_module.html#parameter-permission"
      },
      {
        "type": "kics_id",
        "name": "SQL DB Instance Publicly Accessible",
        "value": "7d7054c0-3a52-4e9b-b9ff-cbfe16a2378b",
        "url": "https://docs.ansible.com/ansible/latest/collections/google/cloud/gcp_sql_instance_module.html"
      },
      {
        "type": "kics_id",
        "name": "ECS Service Admin Role Is Present",
        "value": "7db727c1-1720-468e-b80e-06697f71e09e",
        "url": "https://docs.ansible.com/ansible/latest/collections/community/aws/ecs_service_module.html"
      },
      {
        "type": "kics_id",
        "name": "DB Instance Storage Not Encrypted",
        "value": "7dfb316c-a6c2-454d-b8a2-97f147b0c0ff",
        "url": "https://docs.ansible.com/ansible/latest/collections/community/aws/rds_instance_module.html"
      },
      {
        "type": "kics_id",
        "name": "Compute Instance Is Publicly Accessible",
        "value": "829f1c60-2bab-44c6-8a21-5cd9d39a2c82",
        "url": "https://docs.ansible.com/ansible/latest/collections/google/cloud/gcp_compute_instance_module.html#parameter-network_interfaces/access_configs"
      },
      {
        "type": "kics_id",
        "name": "Automatic Minor Upgrades Disabled",
        "value": "857f8808-e96a-4ba8-a9b7-f2d4ec6cad94",
        "url": "https://docs.ansible.com/ansible/latest/collections/community/aws/rds_instance_module.html#parameter-auto_minor_version_upgrade"
      },
      {
        "type": "kics_id",
        "name": "AKS Network Policy Misconfigured",
        "value": "8c3bedf1-c570-4c3b-b414-d068cd39a00c",
        "url": "https://docs.ansible.com/ansible/latest/collections/azure/azcollection/azure_rm_aks_module.html#parameter-network_profile/network_policy"
      },
      {
        "type": "kics_id",
        "name": "S3 Bucket Without Versioning",
        "value": "9232306a-f839-40aa-b3ef-b352001da9a5",
        "url": "https://docs.ansible.com/ansible/latest/collections/amazon/aws/s3_bucket_module.html#parameter-versioning"
      },
      {
        "type": "kics_id",
        "name": "Network Policy Disabled",
        "value": "98e04ca0-34f5-4c74-8fec-d2e611ce2790",
        "url": "https://docs.ansible.com/ansible/latest/collections/google/cloud/gcp_container_cluster_module.html"
      },
      {
        "type": "kics_id",
        "name": "S3 Bucket ACL Allows Read to All Users",
        "value": "a1ef9d2e-4163-40cb-bd92-04f0d602a15d",
        "url": "https://docs.ansible.com/ansible/latest/collections/amazon/aws/aws_s3_module.html#parameter-permission"
      },
      {
        "type": "kics_id",
        "name": "EC2 Instance Has Public IP",
        "value": "a8b0c58b-cd25-4b53-9ad0-55bca0be0bc1",
        "url": "https://docs.ansible.com/ansible/latest/collections/amazon/aws/ec2_module.html#parameter-assign_public_ip"
      },
      {
        "type": "kics_id",
        "name": "IAM Policy Grants Full Permissions",
        "value": "b5ed026d-a772-4f07-97f9-664ba0b116f8",
        "url": "https://docs.ansible.com/ansible/latest/collections/community/aws/iam_managed_policy_module.html"
      },
      {
        "type": "kics_id",
        "name": "S3 Bucket Logging Disabled",
        "value": "c3b9f7b0-f5a0-49ec-9cbc-f1e346b7274d",
        "url": "https://docs.ansible.com/ansible/latest/collections/amazon/aws/s3_bucket_module.html#parameter-debug_botocore_endpoint_logs"
      },
      {
        "type": "kics_id",
        "name": "S3 Bucket With Public Access",
        "value": "c3e073c1-f65e-4d18-bd67-4a8f20ad1ab9",
        "url": "https://docs.ansible.com/ansible/latest/collections/amazon/aws/aws_s3_module.html#parameter-permission"
      },
      {
        "type": "kics_id",
        "name": "Storage Account Not Using Latest TLS Encryption Version",
        "value": "c62746cf-92d5-4649-9acf-7d48d086f2ee",
        "url": "https://docs.ansible.com/ansible/latest/collections/azure/azcollection/azure_rm_storageaccount_module.html#parameter-minimum_tls_version"
      },
      {
        "type": "kics_id",
        "name": "Default Azure Storage Account Network Access Is Too Permissive",
        "value": "ca4df748-613a-4fbf-9c76-f02cbd580307",
        "url": "https://docs.ansible.com/ansible/latest/collections/azure/azcollection/azure_rm_storageaccount_module.html#parameter-public_network_access"
      },
      {
        "type": "kics_id",
        "name": "SQL DB Instance With SSL Disabled",
        "value": "d0f7da39-a2d5-4c78-bb85-4b7f338b3cbb",
        "url": "https://docs.ansible.com/ansible/latest/collections/google/cloud/gcp_sql_instance_module.html#parameter-settings/ip_configuration/require_ssl"
      },
      {
        "type": "kics_id",
        "name": "GKE Master Authorized Networks Disabled",
        "value": "d43366c5-80b0-45de-bbe8-2338f4ab0a83",
        "url": "https://docs.ansible.com/ansible/latest/collections/google/cloud/gcp_container_cluster_module.html#parameter-master_authorized_networks_config/enabled"
      },
      {
        "type": "kics_id",
        "name": "AKS Monitoring Logging Disabled",
        "value": "d5e83b32-56dd-4247-8c2e-074f43b38a5e",
        "url": "https://docs.ansible.com/ansible/latest/collections/azure/azcollection/azure_rm_aks_module.html"
      },
      {
        "type": "kics_id",
        "name": "GKE Using Default Service Account",
        "value": "dc126833-125a-40fb-905a-ce5f2afde240",
        "url": "https://docs.ansible.com/ansible/latest/collections/google/cloud/gcp_container_cluster_module.html#parameter-node_config/service_account"
      },
      {
        "type": "kics_id",
        "name": "IAM Policies With Full Privileges",
        "value": "e401d614-8026-4f4b-9af9-75d1197461ba",
        "url": "https://docs.ansible.com/ansible/latest/collections/community/aws/iam_managed_policy_module.html"
      },
      {
        "type": "kics_id",
        "name": "IP Aliasing Disabled",
        "value": "ed672a9f-fbf0-44d8-a47d-779501b0db05",
        "url": "https://docs.ansible.com/ansible/latest/collections/google/cloud/gcp_container_cluster_module.html"
      },
      {
        "type": "kics_id",
        "name": "SQLServer Ingress From Any IP",
        "value": "f4e9ff70-0f3b-4c50-a713-26cbe7ec4039",
        "url": "https://docs.ansible.com/ansible/latest/collections/azure/azcollection/azure_rm_sqlfirewallrule_module.html"
      },
      {
        "type": "kics_id",
        "name": "ECS Service Without Running Tasks",
        "value": "f5c45127-1d28-4b49-a692-0b97da1c3a84",
        "url": "https://docs.ansible.com/ansible/latest/collections/community/aws/ecs_service_module.html#ansible-collections-community-aws-ecs-service-module"
      },
      {
        "type": "kics_id",
        "name": "Cluster Labels Disabled",
        "value": "fbe9b2d0-a2b7-47a1-a534-03775f3013f7",
        "url": "https://docs.ansible.com/ansible/latest/collections/google/cloud/gcp_container_cluster_module.html"
      }
    ],
    "type": "sast",
    "start_time": ":SKIP:",
    "end_time": ":SKIP:",
    "status": "success"
  }
}
