{
 "version": "15.1.0",
 "vulnerabilities": [
  {
   "id": "0f7c05ce6987ff57dcf91f62e1cd0a6700ad5d0e5d44d23cdc2d62a4dfc37589",
   "category": "sast",
   "name": "S3 bucket with public READ/WRITE access",
   "description": "'acl' is equal 'public-read'",
   "cve": "kics_id:38c5ee0d-7f22-4260-ab72-5073048df100:82:0",
   "severity": "Critical",
   "scanner": {
    "id": "kics",
    "name": "kics"
   },
   "location": {
    "file": "s3_buckets.tf",
    "start_line": 82
   },
   "identifiers": [
    {
     "type": "kics_id",
     "name": "S3 Bucket ACL Allows Read Or Write to All Users",
     "value": "38c5ee0d-7f22-4260-ab72-5073048df100",
     "url": "https://registry.terraform.io/providers/hashicorp/aws/latest/docs/resources/s3_bucket"
    }
   ]
  },
  {
   "id": "917df12dfed31fd99a7fcde753af979aadf148dec73d12674c8a602880ed7e0e",
   "category": "sast",
   "name": "S3 bucket with public READ/WRITE access",
   "description": "'acl' is equal 'public-read'",
   "cve": "kics_id:38c5ee0d-7f22-4260-ab72-5073048df100:55:0",
   "severity": "Critical",
   "scanner": {
    "id": "kics",
    "name": "kics"
   },
   "location": {
    "file": "s3_buckets.tf",
    "start_line": 55
   },
   "identifiers": [
    {
     "type": "kics_id",
     "name": "S3 Bucket ACL Allows Read Or Write to All Users",
     "value": "38c5ee0d-7f22-4260-ab72-5073048df100",
     "url": "https://registry.terraform.io/providers/hashicorp/aws/latest/docs/resources/s3_bucket"
    }
   ]
  },
  {
   "id": "b827d247514c6e63afe1cafd3458e819e9adb4cd468c5c70be552f9aac2fa194",
   "category": "sast",
   "name": "If algorithm is AES256 then the master key is null, empty or undefined, otherwise the master key is required",
   "description": "'server_side_encryption_configuration' is undefined or null",
   "cve": "kics_id:6726dcc0-5ff5-459d-b473-a780bef7665c:71:0",
   "severity": "Critical",
   "scanner": {
    "id": "kics",
    "name": "kics"
   },
   "location": {
    "file": "s3_buckets.tf",
    "start_line": 71
   },
   "identifiers": [
    {
     "type": "kics_id",
     "name": "S3 Bucket SSE Disabled",
     "value": "6726dcc0-5ff5-459d-b473-a780bef7665c",
     "url": "https://registry.terraform.io/providers/hashicorp/aws/latest/docs/resources/s3_bucket#server_side_encryption_configuration"
    }
   ]
  },
  {
   "id": "cd204e63316d739a6cc9f1c23ee8fec2f9f35892961219c4a07601b8f6c7bdd5",
   "category": "sast",
   "name": "If algorithm is AES256 then the master key is null, empty or undefined, otherwise the master key is required",
   "description": "'server_side_encryption_configuration' is undefined or null",
   "cve": "kics_id:6726dcc0-5ff5-459d-b473-a780bef7665c:44:0",
   "severity": "Critical",
   "scanner": {
    "id": "kics",
    "name": "kics"
   },
   "location": {
    "file": "s3_buckets.tf",
    "start_line": 44
   },
   "identifiers": [
    {
     "type": "kics_id",
     "name": "S3 Bucket SSE Disabled",
     "value": "6726dcc0-5ff5-459d-b473-a780bef7665c",
     "url": "https://registry.terraform.io/providers/hashicorp/aws/latest/docs/resources/s3_bucket#server_side_encryption_configuration"
    }
   ]
  },
  {
   "id": "bb88bdc72ba19d5e1d83b17be566720d764af4beeeebb9a8cdb02b8ab29583ce",
   "category": "sast",
   "name": "Once MFA Delete is enabled on your sensitive and classified S3 bucket it requires the user to have two forms of authentication.\n",
   "description": "aws_s3_bucket[another-bucket-with-logging].versioning is undefined or null",
   "cve": "kics_id:c5b31ab9-0f26-4a49-b8aa-4cc064392f4d:71:0",
   "severity": "Critical",
   "scanner": {
    "id": "kics",
    "name": "kics"
   },
   "location": {
    "file": "s3_buckets.tf",
    "start_line": 71
   },
   "identifiers": [
    {
     "type": "kics_id",
     "name": "S3 Bucket Without Enabled MFA Delete",
     "value": "c5b31ab9-0f26-4a49-b8aa-4cc064392f4d",
     "url": "https://registry.terraform.io/providers/hashicorp/aws/latest/docs/resources/s3_bucket#mfa_delete"
    }
   ]
  },
  {
   "id": "8c27de6fc6801c4b1c6817dd5b5fc46420c422aa247a51ec2db4e4c5b0b97da3",
   "category": "sast",
   "name": "Once MFA Delete is enabled on your sensitive and classified S3 bucket it requires the user to have two forms of authentication.\n",
   "description": "aws_s3_bucket[not-another-public-one-please].versioning is undefined or null",
   "cve": "kics_id:c5b31ab9-0f26-4a49-b8aa-4cc064392f4d:80:0",
   "severity": "Critical",
   "scanner": {
    "id": "kics",
    "name": "kics"
   },
   "location": {
    "file": "s3_buckets.tf",
    "start_line": 80
   },
   "identifiers": [
    {
     "type": "kics_id",
     "name": "S3 Bucket Without Enabled MFA Delete",
     "value": "c5b31ab9-0f26-4a49-b8aa-4cc064392f4d",
     "url": "https://registry.terraform.io/providers/hashicorp/aws/latest/docs/resources/s3_bucket#mfa_delete"
    }
   ]
  },
  {
   "id": "cecf0991326d8f44080ec427b7bc45a0270c70d90818b78aa8ea309acef45086",
   "category": "sast",
   "name": "Once MFA Delete is enabled on your sensitive and classified S3 bucket it requires the user to have two forms of authentication.\n",
   "description": "aws_s3_bucket[bucket-with-encryption-and-logging].versioning is undefined or null",
   "cve": "kics_id:c5b31ab9-0f26-4a49-b8aa-4cc064392f4d:15:0",
   "severity": "Critical",
   "scanner": {
    "id": "kics",
    "name": "kics"
   },
   "location": {
    "file": "s3_buckets.tf",
    "start_line": 15
   },
   "identifiers": [
    {
     "type": "kics_id",
     "name": "S3 Bucket Without Enabled MFA Delete",
     "value": "c5b31ab9-0f26-4a49-b8aa-4cc064392f4d",
     "url": "https://registry.terraform.io/providers/hashicorp/aws/latest/docs/resources/s3_bucket#mfa_delete"
    }
   ]
  },
  {
   "id": "de505f6be6c343aa1c0f1f21250a80f07563155cb9263b532f0e8ae9b2d71cd0",
   "category": "sast",
   "name": "Once MFA Delete is enabled on your sensitive and classified S3 bucket it requires the user to have two forms of authentication.\n",
   "description": "aws_s3_bucket[bucket-with-encryption].versioning is undefined or null",
   "cve": "kics_id:c5b31ab9-0f26-4a49-b8aa-4cc064392f4d:32:0",
   "severity": "Critical",
   "scanner": {
    "id": "kics",
    "name": "kics"
   },
   "location": {
    "file": "s3_buckets.tf",
    "start_line": 32
   },
   "identifiers": [
    {
     "type": "kics_id",
     "name": "S3 Bucket Without Enabled MFA Delete",
     "value": "c5b31ab9-0f26-4a49-b8aa-4cc064392f4d",
     "url": "https://registry.terraform.io/providers/hashicorp/aws/latest/docs/resources/s3_bucket#mfa_delete"
    }
   ]
  },
  {
   "id": "b29508e261371c1cd72253a46ad79833ad6e8c52f861e1ee561240a275224bfd",
   "category": "sast",
   "name": "Once MFA Delete is enabled on your sensitive and classified S3 bucket it requires the user to have two forms of authentication.\n",
   "description": "aws_s3_bucket[acme_bucket].versioning is undefined or null",
   "cve": "kics_id:c5b31ab9-0f26-4a49-b8aa-4cc064392f4d:5:0",
   "severity": "Critical",
   "scanner": {
    "id": "kics",
    "name": "kics"
   },
   "location": {
    "file": "modules/acme_bucket/main.tf",
    "start_line": 5
   },
   "identifiers": [
    {
     "type": "kics_id",
     "name": "S3 Bucket Without Enabled MFA Delete",
     "value": "c5b31ab9-0f26-4a49-b8aa-4cc064392f4d",
     "url": "https://registry.terraform.io/providers/hashicorp/aws/latest/docs/resources/s3_bucket#mfa_delete"
    }
   ]
  },
  {
   "id": "77a6a0b4cde96f632f67776e9550a45c01225c40e0bacf827fc126b5641afd14",
   "category": "sast",
   "name": "Once MFA Delete is enabled on your sensitive and classified S3 bucket it requires the user to have two forms of authentication.\n",
   "description": "aws_s3_bucket[bucket-with-encryption-and-logging-but-public].versioning is undefined or null",
   "cve": "kics_id:c5b31ab9-0f26-4a49-b8aa-4cc064392f4d:53:0",
   "severity": "Critical",
   "scanner": {
    "id": "kics",
    "name": "kics"
   },
   "location": {
    "file": "s3_buckets.tf",
    "start_line": 53
   },
   "identifiers": [
    {
     "type": "kics_id",
     "name": "S3 Bucket Without Enabled MFA Delete",
     "value": "c5b31ab9-0f26-4a49-b8aa-4cc064392f4d",
     "url": "https://registry.terraform.io/providers/hashicorp/aws/latest/docs/resources/s3_bucket#mfa_delete"
    }
   ]
  },
  {
   "id": "987b2ef325f15338db19574120aa0b3b0ef91e837fda49a355574c0444d988f9",
   "category": "sast",
   "name": "Once MFA Delete is enabled on your sensitive and classified S3 bucket it requires the user to have two forms of authentication.\n",
   "description": "aws_s3_bucket[bucket-with-logging].versioning is undefined or null",
   "cve": "kics_id:c5b31ab9-0f26-4a49-b8aa-4cc064392f4d:44:0",
   "severity": "Critical",
   "scanner": {
    "id": "kics",
    "name": "kics"
   },
   "location": {
    "file": "s3_buckets.tf",
    "start_line": 44
   },
   "identifiers": [
    {
     "type": "kics_id",
     "name": "S3 Bucket Without Enabled MFA Delete",
     "value": "c5b31ab9-0f26-4a49-b8aa-4cc064392f4d",
     "url": "https://registry.terraform.io/providers/hashicorp/aws/latest/docs/resources/s3_bucket#mfa_delete"
    }
   ]
  },
  {
   "id": "a277327bcc1ef637edaac4e47f05bb1e54ede09cd27e59f9bbe68766ffc4124f",
   "category": "sast",
   "name": "S3 bucket should have versioning enabled",
   "description": "'versioning' is undefined or null",
   "cve": "kics_id:568a4d22-3517-44a6-a7ad-6a7eed88722c:44:0",
   "severity": "Medium",
   "scanner": {
    "id": "kics",
    "name": "kics"
   },
   "location": {
    "file": "s3_buckets.tf",
    "start_line": 44
   },
   "identifiers": [
    {
     "type": "kics_id",
     "name": "S3 Bucket Without Versioning",
     "value": "568a4d22-3517-44a6-a7ad-6a7eed88722c",
     "url": "https://registry.terraform.io/providers/hashicorp/aws/latest/docs/resources/s3_bucket#versioning"
    }
   ]
  },
  {
   "id": "f860bdfbe0f4e438875d8e0592e2dee8d0d3ad584b6a9cfdd02c548d8957c8f1",
   "category": "sast",
   "name": "S3 bucket should have versioning enabled",
   "description": "'versioning' is undefined or null",
   "cve": "kics_id:568a4d22-3517-44a6-a7ad-6a7eed88722c:15:0",
   "severity": "Medium",
   "scanner": {
    "id": "kics",
    "name": "kics"
   },
   "location": {
    "file": "s3_buckets.tf",
    "start_line": 15
   },
   "identifiers": [
    {
     "type": "kics_id",
     "name": "S3 Bucket Without Versioning",
     "value": "568a4d22-3517-44a6-a7ad-6a7eed88722c",
     "url": "https://registry.terraform.io/providers/hashicorp/aws/latest/docs/resources/s3_bucket#versioning"
    }
   ]
  },
  {
   "id": "90a94bafafeb18997ab1023c7c853d202e0feb9b7bf780d76c535a493f04f957",
   "category": "sast",
   "name": "S3 bucket should have versioning enabled",
   "description": "'versioning' is undefined or null",
   "cve": "kics_id:568a4d22-3517-44a6-a7ad-6a7eed88722c:80:0",
   "severity": "Medium",
   "scanner": {
    "id": "kics",
    "name": "kics"
   },
   "location": {
    "file": "s3_buckets.tf",
    "start_line": 80
   },
   "identifiers": [
    {
     "type": "kics_id",
     "name": "S3 Bucket Without Versioning",
     "value": "568a4d22-3517-44a6-a7ad-6a7eed88722c",
     "url": "https://registry.terraform.io/providers/hashicorp/aws/latest/docs/resources/s3_bucket#versioning"
    }
   ]
  },
  {
   "id": "0d6a929d78695c4941871436109cf0948c3dc7d2e9db8a4111cdafdd187b7c71",
   "category": "sast",
   "name": "S3 bucket should have versioning enabled",
   "description": "'versioning' is undefined or null",
   "cve": "kics_id:568a4d22-3517-44a6-a7ad-6a7eed88722c:71:0",
   "severity": "Medium",
   "scanner": {
    "id": "kics",
    "name": "kics"
   },
   "location": {
    "file": "s3_buckets.tf",
    "start_line": 71
   },
   "identifiers": [
    {
     "type": "kics_id",
     "name": "S3 Bucket Without Versioning",
     "value": "568a4d22-3517-44a6-a7ad-6a7eed88722c",
     "url": "https://registry.terraform.io/providers/hashicorp/aws/latest/docs/resources/s3_bucket#versioning"
    }
   ]
  },
  {
   "id": "e048d7fbd1a5520c0938bef8b6400ff1330555afbbd373d29a2fa950d5e4e56e",
   "category": "sast",
   "name": "S3 bucket should have versioning enabled",
   "description": "'versioning' is undefined or null",
   "cve": "kics_id:568a4d22-3517-44a6-a7ad-6a7eed88722c:32:0",
   "severity": "Medium",
   "scanner": {
    "id": "kics",
    "name": "kics"
   },
   "location": {
    "file": "s3_buckets.tf",
    "start_line": 32
   },
   "identifiers": [
    {
     "type": "kics_id",
     "name": "S3 Bucket Without Versioning",
     "value": "568a4d22-3517-44a6-a7ad-6a7eed88722c",
     "url": "https://registry.terraform.io/providers/hashicorp/aws/latest/docs/resources/s3_bucket#versioning"
    }
   ]
  },
  {
   "id": "7b6d0d08ec20e9a76b64d158d46fec7cbeeda47712914a712d4b1d8d58ec4266",
   "category": "sast",
   "name": "S3 bucket should have versioning enabled",
   "description": "'versioning' is undefined or null",
   "cve": "kics_id:568a4d22-3517-44a6-a7ad-6a7eed88722c:5:0",
   "severity": "Medium",
   "scanner": {
    "id": "kics",
    "name": "kics"
   },
   "location": {
    "file": "modules/acme_bucket/main.tf",
    "start_line": 5
   },
   "identifiers": [
    {
     "type": "kics_id",
     "name": "S3 Bucket Without Versioning",
     "value": "568a4d22-3517-44a6-a7ad-6a7eed88722c",
     "url": "https://registry.terraform.io/providers/hashicorp/aws/latest/docs/resources/s3_bucket#versioning"
    }
   ]
  },
  {
   "id": "219c8b22b2b15cd520f597430d2813fd8a8a16e012555d108872e4c42461b45b",
   "category": "sast",
   "name": "S3 bucket should have versioning enabled",
   "description": "'versioning' is undefined or null",
   "cve": "kics_id:568a4d22-3517-44a6-a7ad-6a7eed88722c:53:0",
   "severity": "Medium",
   "scanner": {
    "id": "kics",
    "name": "kics"
   },
   "location": {
    "file": "s3_buckets.tf",
    "start_line": 53
   },
   "identifiers": [
    {
     "type": "kics_id",
     "name": "S3 Bucket Without Versioning",
     "value": "568a4d22-3517-44a6-a7ad-6a7eed88722c",
     "url": "https://registry.terraform.io/providers/hashicorp/aws/latest/docs/resources/s3_bucket#versioning"
    }
   ]
  },
  {
   "id": "bdc40e56fedd828679172ce85e8028f3fc18249ddca4d51ceda4215fa2c21faf",
   "category": "sast",
   "name": "S3 bucket without logging",
   "description": "'logging' is undefined or null",
   "cve": "kics_id:f861041c-8c9f-4156-acfc-5e6e524f5884:32:0",
   "severity": "Info",
   "scanner": {
    "id": "kics",
    "name": "kics"
   },
   "location": {
    "file": "s3_buckets.tf",
    "start_line": 32
   },
   "identifiers": [
    {
     "type": "kics_id",
     "name": "S3 Bucket Logging Disabled",
     "value": "f861041c-8c9f-4156-acfc-5e6e524f5884",
     "url": "https://registry.terraform.io/providers/hashicorp/aws/latest/docs/resources/s3_bucket"
    }
   ]
  },
  {
   "id": "da4c4908e77ae4b40cf1f612c44b6130e1d68c7d51baa4dc72f479cdaf6bda10",
   "category": "sast",
   "name": "All names should follow snake case pattern.",
   "description": "'bucket-with-encryption-and-logging' is not in snake case",
   "cve": "kics_id:1e434b25-8763-4b00-a5ca-ca03b7abbb66:15:0",
   "severity": "Info",
   "scanner": {
    "id": "kics",
    "name": "kics"
   },
   "location": {
    "file": "s3_buckets.tf",
    "start_line": 15
   },
   "identifiers": [
    {
     "type": "kics_id",
     "name": "Name Is Not Snake Case",
     "value": "1e434b25-8763-4b00-a5ca-ca03b7abbb66",
     "url": "https://www.terraform.io/docs/extend/best-practices/naming.html#naming"
    }
   ]
  },
  {
   "id": "f1bb883fa2f553c81ef202e481f46f9bd8fd2108294f930ecd73900a2aa2e306",
   "category": "sast",
   "name": "All names should follow snake case pattern.",
   "description": "'not-another-public-one-please' is not in snake case",
   "cve": "kics_id:1e434b25-8763-4b00-a5ca-ca03b7abbb66:80:0",
   "severity": "Info",
   "scanner": {
    "id": "kics",
    "name": "kics"
   },
   "location": {
    "file": "s3_buckets.tf",
    "start_line": 80
   },
   "identifiers": [
    {
     "type": "kics_id",
     "name": "Name Is Not Snake Case",
     "value": "1e434b25-8763-4b00-a5ca-ca03b7abbb66",
     "url": "https://www.terraform.io/docs/extend/best-practices/naming.html#naming"
    }
   ]
  },
  {
   "id": "8ac57067fea6c8c70133cdf23de980f0d1f232760c379bfa7bf4d4a0afb59772",
   "category": "sast",
   "name": "All names should follow snake case pattern.",
   "description": "'another-bucket-with-logging' is not in snake case",
   "cve": "kics_id:1e434b25-8763-4b00-a5ca-ca03b7abbb66:71:0",
   "severity": "Info",
   "scanner": {
    "id": "kics",
    "name": "kics"
   },
   "location": {
    "file": "s3_buckets.tf",
    "start_line": 71
   },
   "identifiers": [
    {
     "type": "kics_id",
     "name": "Name Is Not Snake Case",
     "value": "1e434b25-8763-4b00-a5ca-ca03b7abbb66",
     "url": "https://www.terraform.io/docs/extend/best-practices/naming.html#naming"
    }
   ]
  },
  {
   "id": "8208b0f1509622c0c7d6aa64c718c35acc96ce738e259041a92c79d8ef8cc8a8",
   "category": "sast",
   "name": "All names should follow snake case pattern.",
   "description": "'bucket-with-encryption-and-logging-but-public' is not in snake case",
   "cve": "kics_id:1e434b25-8763-4b00-a5ca-ca03b7abbb66:53:0",
   "severity": "Info",
   "scanner": {
    "id": "kics",
    "name": "kics"
   },
   "location": {
    "file": "s3_buckets.tf",
    "start_line": 53
   },
   "identifiers": [
    {
     "type": "kics_id",
     "name": "Name Is Not Snake Case",
     "value": "1e434b25-8763-4b00-a5ca-ca03b7abbb66",
     "url": "https://www.terraform.io/docs/extend/best-practices/naming.html#naming"
    }
   ]
  },
  {
   "id": "4148b280a95410c2d8d968736924365aa7758e5d99b01663081793f37d461273",
   "category": "sast",
   "name": "All names should follow snake case pattern.",
   "description": "'bucket-with-logging' is not in snake case",
   "cve": "kics_id:1e434b25-8763-4b00-a5ca-ca03b7abbb66:44:0",
   "severity": "Info",
   "scanner": {
    "id": "kics",
    "name": "kics"
   },
   "location": {
    "file": "s3_buckets.tf",
    "start_line": 44
   },
   "identifiers": [
    {
     "type": "kics_id",
     "name": "Name Is Not Snake Case",
     "value": "1e434b25-8763-4b00-a5ca-ca03b7abbb66",
     "url": "https://www.terraform.io/docs/extend/best-practices/naming.html#naming"
    }
   ]
  },
  {
   "id": "2f587ff75304f0fa56a2705032a7545dd6214005524c19c8531c3dc369529fd7",
   "category": "sast",
   "name": "All names should follow snake case pattern.",
   "description": "'bucket-with-encryption' is not in snake case",
   "cve": "kics_id:1e434b25-8763-4b00-a5ca-ca03b7abbb66:32:0",
   "severity": "Info",
   "scanner": {
    "id": "kics",
    "name": "kics"
   },
   "location": {
    "file": "s3_buckets.tf",
    "start_line": 32
   },
   "identifiers": [
    {
     "type": "kics_id",
     "name": "Name Is Not Snake Case",
     "value": "1e434b25-8763-4b00-a5ca-ca03b7abbb66",
     "url": "https://www.terraform.io/docs/extend/best-practices/naming.html#naming"
    }
   ]
  },
  {
   "id": "24942b49a436b0eb5e9be6d214f727cf10291cbeb4f80c7b7e490bd49f081320",
   "category": "sast",
   "name": "All outputs should contain a valid description.",
   "description": "'description' is undefined or null",
   "cve": "kics_id:59312e8a-a64e-41e7-a252-618533dd1ea8:1:0",
   "severity": "Info",
   "scanner": {
    "id": "kics",
    "name": "kics"
   },
   "location": {
    "file": "modules/acme_bucket/outputs.tf",
    "start_line": 1
   },
   "identifiers": [
    {
     "type": "kics_id",
     "name": "Output Without Description",
     "value": "59312e8a-a64e-41e7-a252-618533dd1ea8",
     "url": "https://www.terraform.io/docs/language/values/outputs.html#description-output-value-documentation"
    }
   ]
  },
  {
   "id": "97480aeb8b65cf16afe6df2a566ff9057e0d4605f1a1567a3e23e8d8d3b51d66",
   "category": "sast",
   "name": "AWS services resource tags are an essential part of managing components",
   "description": "aws_s3_bucket[{{bucket-with-logging}}].tags is undefined or null",
   "cve": "kics_id:e38a8e0a-b88b-4902-b3fe-b0fcb17d5c10:44:0",
   "severity": "Info",
   "scanner": {
    "id": "kics",
    "name": "kics"
   },
   "location": {
    "file": "s3_buckets.tf",
    "start_line": 44
   },
   "identifiers": [
    {
     "type": "kics_id",
     "name": "Resource Not Using Tags",
     "value": "e38a8e0a-b88b-4902-b3fe-b0fcb17d5c10",
     "url": "https://registry.terraform.io/providers/hashicorp/aws/latest/docs/guides/resource-tagging"
    }
   ]
  },
  {
   "id": "59be820cebcbceac9bda4091ab6c23da31d3b0025d5ecaf6ae0f850c313754fe",
   "category": "sast",
   "name": "AWS services resource tags are an essential part of managing components",
   "description": "aws_s3_bucket[{{another-bucket-with-logging}}].tags is undefined or null",
   "cve": "kics_id:e38a8e0a-b88b-4902-b3fe-b0fcb17d5c10:71:0",
   "severity": "Info",
   "scanner": {
    "id": "kics",
    "name": "kics"
   },
   "location": {
    "file": "s3_buckets.tf",
    "start_line": 71
   },
   "identifiers": [
    {
     "type": "kics_id",
     "name": "Resource Not Using Tags",
     "value": "e38a8e0a-b88b-4902-b3fe-b0fcb17d5c10",
     "url": "https://registry.terraform.io/providers/hashicorp/aws/latest/docs/guides/resource-tagging"
    }
   ]
  },
  {
   "id": "02e4b460a6adf045bc8ff0f3eb79c268269bf1edc660475caf08977f7b68b695",
   "category": "sast",
   "name": "AWS services resource tags are an essential part of managing components",
   "description": "aws_s3_bucket[{{not-another-public-one-please}}].tags is undefined or null",
   "cve": "kics_id:e38a8e0a-b88b-4902-b3fe-b0fcb17d5c10:80:0",
   "severity": "Info",
   "scanner": {
    "id": "kics",
    "name": "kics"
   },
   "location": {
    "file": "s3_buckets.tf",
    "start_line": 80
   },
   "identifiers": [
    {
     "type": "kics_id",
     "name": "Resource Not Using Tags",
     "value": "e38a8e0a-b88b-4902-b3fe-b0fcb17d5c10",
     "url": "https://registry.terraform.io/providers/hashicorp/aws/latest/docs/guides/resource-tagging"
    }
   ]
  },
  {
   "id": "254aa6f9183ff908ef1f52537571e0d13d57ef392c9e7f0af15ebc20fc020b51",
   "category": "sast",
   "name": "AWS services resource tags are an essential part of managing components",
   "description": "aws_s3_bucket[{{acme_bucket}}].tags is undefined or null",
   "cve": "kics_id:e38a8e0a-b88b-4902-b3fe-b0fcb17d5c10:5:0",
   "severity": "Info",
   "scanner": {
    "id": "kics",
    "name": "kics"
   },
   "location": {
    "file": "modules/acme_bucket/main.tf",
    "start_line": 5
   },
   "identifiers": [
    {
     "type": "kics_id",
     "name": "Resource Not Using Tags",
     "value": "e38a8e0a-b88b-4902-b3fe-b0fcb17d5c10",
     "url": "https://registry.terraform.io/providers/hashicorp/aws/latest/docs/guides/resource-tagging"
    }
   ]
  },
  {
   "id": "c5cbbce08a9e795a896f890fd380610b1b70fc52d819384a950c0c8555fa3f34",
   "category": "sast",
   "name": "AWS services resource tags are an essential part of managing components",
   "description": "aws_s3_bucket[{{bucket-with-encryption}}].tags is undefined or null",
   "cve": "kics_id:e38a8e0a-b88b-4902-b3fe-b0fcb17d5c10:32:0",
   "severity": "Info",
   "scanner": {
    "id": "kics",
    "name": "kics"
   },
   "location": {
    "file": "s3_buckets.tf",
    "start_line": 32
   },
   "identifiers": [
    {
     "type": "kics_id",
     "name": "Resource Not Using Tags",
     "value": "e38a8e0a-b88b-4902-b3fe-b0fcb17d5c10",
     "url": "https://registry.terraform.io/providers/hashicorp/aws/latest/docs/guides/resource-tagging"
    }
   ]
  },
  {
   "id": "95f92234674f6f90ef66bf50671bea0d6de4c710d7468a829d48641ab220be97",
   "category": "sast",
   "name": "AWS services resource tags are an essential part of managing components",
   "description": "aws_s3_bucket[{{bucket-with-encryption-and-logging-but-public}}].tags is undefined or null",
   "cve": "kics_id:e38a8e0a-b88b-4902-b3fe-b0fcb17d5c10:53:0",
   "severity": "Info",
   "scanner": {
    "id": "kics",
    "name": "kics"
   },
   "location": {
    "file": "s3_buckets.tf",
    "start_line": 53
   },
   "identifiers": [
    {
     "type": "kics_id",
     "name": "Resource Not Using Tags",
     "value": "e38a8e0a-b88b-4902-b3fe-b0fcb17d5c10",
     "url": "https://registry.terraform.io/providers/hashicorp/aws/latest/docs/guides/resource-tagging"
    }
   ]
  },
  {
   "id": "b2fadcdc60c9876e94285ffee1098f7dd0197f3de296fa3e64d4fa44472d1f22",
   "category": "sast",
   "name": "AWS services resource tags are an essential part of managing components",
   "description": "aws_s3_bucket[{{bucket-with-encryption-and-logging}}].tags is undefined or null",
   "cve": "kics_id:e38a8e0a-b88b-4902-b3fe-b0fcb17d5c10:15:0",
   "severity": "Info",
   "scanner": {
    "id": "kics",
    "name": "kics"
   },
   "location": {
    "file": "s3_buckets.tf",
    "start_line": 15
   },
   "identifiers": [
    {
     "type": "kics_id",
     "name": "Resource Not Using Tags",
     "value": "e38a8e0a-b88b-4902-b3fe-b0fcb17d5c10",
     "url": "https://registry.terraform.io/providers/hashicorp/aws/latest/docs/guides/resource-tagging"
    }
   ]
  },
  {
   "id": "2fb7fb451f7b13438914cf4c305a332cd48f82a46bc7caef9361bbd233ea577d",
   "category": "sast",
   "name": "All variables should contain a valid type.",
   "description": "'type' is undefined or null",
   "cve": "kics_id:fc5109bf-01fd-49fb-8bde-4492b543c34a:1:0",
   "severity": "Info",
   "scanner": {
    "id": "kics",
    "name": "kics"
   },
   "location": {
    "file": "variables.tf",
    "start_line": 1
   },
   "identifiers": [
    {
     "type": "kics_id",
     "name": "Variable Without Type",
     "value": "fc5109bf-01fd-49fb-8bde-4492b543c34a",
     "url": "https://www.terraform.io/docs/language/values/variables.html#input-variable-documentation"
    }
   ]
  },
  {
   "id": "27efdd866a08495fbc008f1137de309df6534d885520cc456dcdd38104a32a54",
   "category": "sast",
   "name": "All variables should contain a valid type.",
   "description": "'type' is undefined or null",
   "cve": "kics_id:fc5109bf-01fd-49fb-8bde-4492b543c34a:10:0",
   "severity": "Info",
   "scanner": {
    "id": "kics",
    "name": "kics"
   },
   "location": {
    "file": "modules/acme_bucket/variables.tf",
    "start_line": 10
   },
   "identifiers": [
    {
     "type": "kics_id",
     "name": "Variable Without Type",
     "value": "fc5109bf-01fd-49fb-8bde-4492b543c34a",
     "url": "https://www.terraform.io/docs/language/values/variables.html#input-variable-documentation"
    }
   ]
  },
  {
   "id": "db6ffdfda5ff16e4271211791299877549aa539f3ca1cdbd720248159655302b",
   "category": "sast",
   "name": "All variables should contain a valid type.",
   "description": "'type' is undefined or null",
   "cve": "kics_id:fc5109bf-01fd-49fb-8bde-4492b543c34a:1:0",
   "severity": "Info",
   "scanner": {
    "id": "kics",
    "name": "kics"
   },
   "location": {
    "file": "modules/acme_bucket/variables.tf",
    "start_line": 1
   },
   "identifiers": [
    {
     "type": "kics_id",
     "name": "Variable Without Type",
     "value": "fc5109bf-01fd-49fb-8bde-4492b543c34a",
     "url": "https://www.terraform.io/docs/language/values/variables.html#input-variable-documentation"
    }
   ]
  },
  {
   "id": "f2ca10f47852b0e21a4c3dd7616b06d51edd9a1c7825e50ec2f4735f7c8d4c22",
   "category": "sast",
   "name": "All variables should contain a valid type.",
   "description": "'type' is undefined or null",
   "cve": "kics_id:fc5109bf-01fd-49fb-8bde-4492b543c34a:5:0",
   "severity": "Info",
   "scanner": {
    "id": "kics",
    "name": "kics"
   },
   "location": {
    "file": "modules/acme_bucket/variables.tf",
    "start_line": 5
   },
   "identifiers": [
    {
     "type": "kics_id",
     "name": "Variable Without Type",
     "value": "fc5109bf-01fd-49fb-8bde-4492b543c34a",
     "url": "https://www.terraform.io/docs/language/values/variables.html#input-variable-documentation"
    }
   ]
  }
 ],
 "dependency_files": [],
 "scan": {
  "analyzer": {
   "id": "",
   "name": "",
   "vendor": {
    "name": ""
   },
   "version": ""
  },
  "scanner": {
   "id": "",
   "name": "",
   "vendor": {
    "name": ""
   },
   "version": ""
  },
  "primary_identifiers": [
   {
    "type": "kics_id",
    "name": "Name Is Not Snake Case",
    "value": "1e434b25-8763-4b00-a5ca-ca03b7abbb66",
    "url": "https://www.terraform.io/docs/extend/best-practices/naming.html#naming"
   },
   {
    "type": "kics_id",
    "name": "S3 Bucket ACL Allows Read Or Write to All Users",
    "value": "38c5ee0d-7f22-4260-ab72-5073048df100",
    "url": "https://registry.terraform.io/providers/hashicorp/aws/latest/docs/resources/s3_bucket"
   },
   {
    "type": "kics_id",
    "name": "S3 Bucket Without Versioning",
    "value": "568a4d22-3517-44a6-a7ad-6a7eed88722c",
    "url": "https://registry.terraform.io/providers/hashicorp/aws/latest/docs/resources/s3_bucket#versioning"
   },
   {
    "type": "kics_id",
    "name": "Output Without Description",
    "value": "59312e8a-a64e-41e7-a252-618533dd1ea8",
    "url": "https://www.terraform.io/docs/language/values/outputs.html#description-output-value-documentation"
   },
   {
    "type": "kics_id",
    "name": "S3 Bucket SSE Disabled",
    "value": "6726dcc0-5ff5-459d-b473-a780bef7665c",
    "url": "https://registry.terraform.io/providers/hashicorp/aws/latest/docs/resources/s3_bucket#server_side_encryption_configuration"
   },
   {
    "type": "kics_id",
    "name": "S3 Bucket Without Enabled MFA Delete",
    "value": "c5b31ab9-0f26-4a49-b8aa-4cc064392f4d",
    "url": "https://registry.terraform.io/providers/hashicorp/aws/latest/docs/resources/s3_bucket#mfa_delete"
   },
   {
    "type": "kics_id",
    "name": "Resource Not Using Tags",
    "value": "e38a8e0a-b88b-4902-b3fe-b0fcb17d5c10",
    "url": "https://registry.terraform.io/providers/hashicorp/aws/latest/docs/guides/resource-tagging"
   },
   {
    "type": "kics_id",
    "name": "S3 Bucket Logging Disabled",
    "value": "f861041c-8c9f-4156-acfc-5e6e524f5884",
    "url": "https://registry.terraform.io/providers/hashicorp/aws/latest/docs/resources/s3_bucket"
   },
   {
    "type": "kics_id",
    "name": "Variable Without Type",
    "value": "fc5109bf-01fd-49fb-8bde-4492b543c34a",
    "url": "https://www.terraform.io/docs/language/values/variables.html#input-variable-documentation"
   }
  ],
  "type": ""
 }
}