{
  "version": "15.0.7",
  "vulnerabilities": [
    {
      "id": ":SKIP:",
      "category": "sast",
      "name": "S3 Buckets should not be readable and writable to all users",
      "description": "'acl' is equal 'public-read'",
      "cve": "kics_id:38c5ee0d-7f22-4260-ab72-5073048df100:55:0",
      "severity": "Critical",
      "scanner": {
        "id": "kics",
        "name": "kics"
      },
      "location": {
        "file": "s3_buckets.tf",
        "start_line": 55
      },
      "identifiers": [
        {
          "type": "kics_id",
          "name": "S3 Bucket ACL Allows Read Or Write to All Users",
          "value": "38c5ee0d-7f22-4260-ab72-5073048df100",
          "url": "https://registry.terraform.io/providers/hashicorp/aws/latest/docs/resources/s3_bucket"
        }
      ]
    },
    {
      "id": ":SKIP:",
      "category": "sast",
      "name": "S3 Buckets should not be readable and writable to all users",
      "description": "'acl' is equal 'public-read'",
      "cve": "kics_id:38c5ee0d-7f22-4260-ab72-5073048df100:82:0",
      "severity": "Critical",
      "scanner": {
        "id": "kics",
        "name": "kics"
      },
      "location": {
        "file": "s3_buckets.tf",
        "start_line": 82
      },
      "identifiers": [
        {
          "type": "kics_id",
          "name": "S3 Bucket ACL Allows Read Or Write to All Users",
          "value": "38c5ee0d-7f22-4260-ab72-5073048df100",
          "url": "https://registry.terraform.io/providers/hashicorp/aws/latest/docs/resources/s3_bucket"
        }
      ]
    },
    {
      "id": ":SKIP:",
      "category": "sast",
      "name": "If the master key is null, empty, or undefined, then the SSE algorithm should be AES256. Conversely, if the SSE algorithm is AES256, then the master key should be null, empty, or undefined.",
      "description": "'aws_s3_bucket' does not have 'server_side_encryption_configuration' associated",
      "cve": "kics_id:6726dcc0-5ff5-459d-b473-a780bef7665c:44:0",
      "severity": "Critical",
      "scanner": {
        "id": "kics",
        "name": "kics"
      },
      "location": {
        "file": "s3_buckets.tf",
        "start_line": 44
      },
      "identifiers": [
        {
          "type": "kics_id",
          "name": "S3 Bucket SSE Disabled",
          "value": "6726dcc0-5ff5-459d-b473-a780bef7665c",
          "url": "https://registry.terraform.io/providers/hashicorp/aws/latest/docs/resources/s3_bucket#server_side_encryption_configuration"
        }
      ]
    },
    {
      "id": ":SKIP:",
      "category": "sast",
      "name": "If the master key is null, empty, or undefined, then the SSE algorithm should be AES256. Conversely, if the SSE algorithm is AES256, then the master key should be null, empty, or undefined.",
      "description": "'aws_s3_bucket' does not have 'server_side_encryption_configuration' associated",
      "cve": "kics_id:6726dcc0-5ff5-459d-b473-a780bef7665c:71:0",
      "severity": "Critical",
      "scanner": {
        "id": "kics",
        "name": "kics"
      },
      "location": {
        "file": "s3_buckets.tf",
        "start_line": 71
      },
      "identifiers": [
        {
          "type": "kics_id",
          "name": "S3 Bucket SSE Disabled",
          "value": "6726dcc0-5ff5-459d-b473-a780bef7665c",
          "url": "https://registry.terraform.io/providers/hashicorp/aws/latest/docs/resources/s3_bucket#server_side_encryption_configuration"
        }
      ]
    },
    {
      "id": ":SKIP:",
      "category": "sast",
      "name": "S3 bucket without MFA Delete Enabled. MFA delete cannot be enabled through Terraform, it can be done by adding a MFA device (https://docs.aws.amazon.com/IAM/latest/UserGuide/id_credentials_mfa_enable.html) and enabling versioning and MFA delete by usin...",
      "description": "versioning is undefined or null",
      "cve": "kics_id:c5b31ab9-0f26-4a49-b8aa-4cc064392f4d:15:0",
      "severity": "Critical",
      "scanner": {
        "id": "kics",
        "name": "kics"
      },
      "location": {
        "file": "s3_buckets.tf",
        "start_line": 15
      },
      "identifiers": [
        {
          "type": "kics_id",
          "name": "S3 Bucket Without Enabled MFA Delete",
          "value": "c5b31ab9-0f26-4a49-b8aa-4cc064392f4d",
          "url": "https://registry.terraform.io/providers/hashicorp/aws/latest/docs/resources/s3_bucket#mfa_delete"
        }
      ]
    },
    {
      "id": ":SKIP:",
      "category": "sast",
      "name": "S3 bucket without MFA Delete Enabled. MFA delete cannot be enabled through Terraform, it can be done by adding a MFA device (https://docs.aws.amazon.com/IAM/latest/UserGuide/id_credentials_mfa_enable.html) and enabling versioning and MFA delete by usin...",
      "description": "versioning is undefined or null",
      "cve": "kics_id:c5b31ab9-0f26-4a49-b8aa-4cc064392f4d:32:0",
      "severity": "Critical",
      "scanner": {
        "id": "kics",
        "name": "kics"
      },
      "location": {
        "file": "s3_buckets.tf",
        "start_line": 32
      },
      "identifiers": [
        {
          "type": "kics_id",
          "name": "S3 Bucket Without Enabled MFA Delete",
          "value": "c5b31ab9-0f26-4a49-b8aa-4cc064392f4d",
          "url": "https://registry.terraform.io/providers/hashicorp/aws/latest/docs/resources/s3_bucket#mfa_delete"
        }
      ]
    },
    {
      "id": ":SKIP:",
      "category": "sast",
      "name": "S3 bucket without MFA Delete Enabled. MFA delete cannot be enabled through Terraform, it can be done by adding a MFA device (https://docs.aws.amazon.com/IAM/latest/UserGuide/id_credentials_mfa_enable.html) and enabling versioning and MFA delete by usin...",
      "description": "versioning is undefined or null",
      "cve": "kics_id:c5b31ab9-0f26-4a49-b8aa-4cc064392f4d:44:0",
      "severity": "Critical",
      "scanner": {
        "id": "kics",
        "name": "kics"
      },
      "location": {
        "file": "s3_buckets.tf",
        "start_line": 44
      },
      "identifiers": [
        {
          "type": "kics_id",
          "name": "S3 Bucket Without Enabled MFA Delete",
          "value": "c5b31ab9-0f26-4a49-b8aa-4cc064392f4d",
          "url": "https://registry.terraform.io/providers/hashicorp/aws/latest/docs/resources/s3_bucket#mfa_delete"
        }
      ]
    },
    {
      "id": ":SKIP:",
      "category": "sast",
      "name": "S3 bucket without MFA Delete Enabled. MFA delete cannot be enabled through Terraform, it can be done by adding a MFA device (https://docs.aws.amazon.com/IAM/latest/UserGuide/id_credentials_mfa_enable.html) and enabling versioning and MFA delete by usin...",
      "description": "versioning is undefined or null",
      "cve": "kics_id:c5b31ab9-0f26-4a49-b8aa-4cc064392f4d:53:0",
      "severity": "Critical",
      "scanner": {
        "id": "kics",
        "name": "kics"
      },
      "location": {
        "file": "s3_buckets.tf",
        "start_line": 53
      },
      "identifiers": [
        {
          "type": "kics_id",
          "name": "S3 Bucket Without Enabled MFA Delete",
          "value": "c5b31ab9-0f26-4a49-b8aa-4cc064392f4d",
          "url": "https://registry.terraform.io/providers/hashicorp/aws/latest/docs/resources/s3_bucket#mfa_delete"
        }
      ]
    },
    {
      "id": ":SKIP:",
      "category": "sast",
      "name": "S3 bucket without MFA Delete Enabled. MFA delete cannot be enabled through Terraform, it can be done by adding a MFA device (https://docs.aws.amazon.com/IAM/latest/UserGuide/id_credentials_mfa_enable.html) and enabling versioning and MFA delete by usin...",
      "description": "versioning is undefined or null",
      "cve": "kics_id:c5b31ab9-0f26-4a49-b8aa-4cc064392f4d:5:0",
      "severity": "Critical",
      "scanner": {
        "id": "kics",
        "name": "kics"
      },
      "location": {
        "file": "modules/acme_bucket/main.tf",
        "start_line": 5
      },
      "identifiers": [
        {
          "type": "kics_id",
          "name": "S3 Bucket Without Enabled MFA Delete",
          "value": "c5b31ab9-0f26-4a49-b8aa-4cc064392f4d",
          "url": "https://registry.terraform.io/providers/hashicorp/aws/latest/docs/resources/s3_bucket#mfa_delete"
        }
      ]
    },
    {
      "id": ":SKIP:",
      "category": "sast",
      "name": "S3 bucket without MFA Delete Enabled. MFA delete cannot be enabled through Terraform, it can be done by adding a MFA device (https://docs.aws.amazon.com/IAM/latest/UserGuide/id_credentials_mfa_enable.html) and enabling versioning and MFA delete by usin...",
      "description": "versioning is undefined or null",
      "cve": "kics_id:c5b31ab9-0f26-4a49-b8aa-4cc064392f4d:71:0",
      "severity": "Critical",
      "scanner": {
        "id": "kics",
        "name": "kics"
      },
      "location": {
        "file": "s3_buckets.tf",
        "start_line": 71
      },
      "identifiers": [
        {
          "type": "kics_id",
          "name": "S3 Bucket Without Enabled MFA Delete",
          "value": "c5b31ab9-0f26-4a49-b8aa-4cc064392f4d",
          "url": "https://registry.terraform.io/providers/hashicorp/aws/latest/docs/resources/s3_bucket#mfa_delete"
        }
      ]
    },
    {
      "id": ":SKIP:",
      "category": "sast",
      "name": "S3 bucket without MFA Delete Enabled. MFA delete cannot be enabled through Terraform, it can be done by adding a MFA device (https://docs.aws.amazon.com/IAM/latest/UserGuide/id_credentials_mfa_enable.html) and enabling versioning and MFA delete by usin...",
      "description": "versioning is undefined or null",
      "cve": "kics_id:c5b31ab9-0f26-4a49-b8aa-4cc064392f4d:80:0",
      "severity": "Critical",
      "scanner": {
        "id": "kics",
        "name": "kics"
      },
      "location": {
        "file": "s3_buckets.tf",
        "start_line": 80
      },
      "identifiers": [
        {
          "type": "kics_id",
          "name": "S3 Bucket Without Enabled MFA Delete",
          "value": "c5b31ab9-0f26-4a49-b8aa-4cc064392f4d",
          "url": "https://registry.terraform.io/providers/hashicorp/aws/latest/docs/resources/s3_bucket#mfa_delete"
        }
      ]
    },
    {
      "id": ":SKIP:",
      "category": "sast",
      "name": "S3 bucket should have versioning enabled",
      "description": "'versioning' is undefined or null",
      "cve": "kics_id:568a4d22-3517-44a6-a7ad-6a7eed88722c:15:0",
      "severity": "Medium",
      "scanner": {
        "id": "kics",
        "name": "kics"
      },
      "location": {
        "file": "s3_buckets.tf",
        "start_line": 15
      },
      "identifiers": [
        {
          "type": "kics_id",
          "name": "S3 Bucket Without Versioning",
          "value": "568a4d22-3517-44a6-a7ad-6a7eed88722c",
          "url": "https://registry.terraform.io/providers/hashicorp/aws/latest/docs/resources/s3_bucket#versioning"
        }
      ]
    },
    {
      "id": ":SKIP:",
      "category": "sast",
      "name": "S3 bucket should have versioning enabled",
      "description": "'versioning' is undefined or null",
      "cve": "kics_id:568a4d22-3517-44a6-a7ad-6a7eed88722c:32:0",
      "severity": "Medium",
      "scanner": {
        "id": "kics",
        "name": "kics"
      },
      "location": {
        "file": "s3_buckets.tf",
        "start_line": 32
      },
      "identifiers": [
        {
          "type": "kics_id",
          "name": "S3 Bucket Without Versioning",
          "value": "568a4d22-3517-44a6-a7ad-6a7eed88722c",
          "url": "https://registry.terraform.io/providers/hashicorp/aws/latest/docs/resources/s3_bucket#versioning"
        }
      ]
    },
    {
      "id": ":SKIP:",
      "category": "sast",
      "name": "S3 bucket should have versioning enabled",
      "description": "'versioning' is undefined or null",
      "cve": "kics_id:568a4d22-3517-44a6-a7ad-6a7eed88722c:44:0",
      "severity": "Medium",
      "scanner": {
        "id": "kics",
        "name": "kics"
      },
      "location": {
        "file": "s3_buckets.tf",
        "start_line": 44
      },
      "identifiers": [
        {
          "type": "kics_id",
          "name": "S3 Bucket Without Versioning",
          "value": "568a4d22-3517-44a6-a7ad-6a7eed88722c",
          "url": "https://registry.terraform.io/providers/hashicorp/aws/latest/docs/resources/s3_bucket#versioning"
        }
      ]
    },
    {
      "id": ":SKIP:",
      "category": "sast",
      "name": "S3 bucket should have versioning enabled",
      "description": "'versioning' is undefined or null",
      "cve": "kics_id:568a4d22-3517-44a6-a7ad-6a7eed88722c:53:0",
      "severity": "Medium",
      "scanner": {
        "id": "kics",
        "name": "kics"
      },
      "location": {
        "file": "s3_buckets.tf",
        "start_line": 53
      },
      "identifiers": [
        {
          "type": "kics_id",
          "name": "S3 Bucket Without Versioning",
          "value": "568a4d22-3517-44a6-a7ad-6a7eed88722c",
          "url": "https://registry.terraform.io/providers/hashicorp/aws/latest/docs/resources/s3_bucket#versioning"
        }
      ]
    },
    {
      "id": ":SKIP:",
      "category": "sast",
      "name": "S3 bucket should have versioning enabled",
      "description": "'versioning' is undefined or null",
      "cve": "kics_id:568a4d22-3517-44a6-a7ad-6a7eed88722c:5:0",
      "severity": "Medium",
      "scanner": {
        "id": "kics",
        "name": "kics"
      },
      "location": {
        "file": "modules/acme_bucket/main.tf",
        "start_line": 5
      },
      "identifiers": [
        {
          "type": "kics_id",
          "name": "S3 Bucket Without Versioning",
          "value": "568a4d22-3517-44a6-a7ad-6a7eed88722c",
          "url": "https://registry.terraform.io/providers/hashicorp/aws/latest/docs/resources/s3_bucket#versioning"
        }
      ]
    },
    {
      "id": ":SKIP:",
      "category": "sast",
      "name": "S3 bucket should have versioning enabled",
      "description": "'versioning' is undefined or null",
      "cve": "kics_id:568a4d22-3517-44a6-a7ad-6a7eed88722c:71:0",
      "severity": "Medium",
      "scanner": {
        "id": "kics",
        "name": "kics"
      },
      "location": {
        "file": "s3_buckets.tf",
        "start_line": 71
      },
      "identifiers": [
        {
          "type": "kics_id",
          "name": "S3 Bucket Without Versioning",
          "value": "568a4d22-3517-44a6-a7ad-6a7eed88722c",
          "url": "https://registry.terraform.io/providers/hashicorp/aws/latest/docs/resources/s3_bucket#versioning"
        }
      ]
    },
    {
      "id": ":SKIP:",
      "category": "sast",
      "name": "S3 bucket should have versioning enabled",
      "description": "'versioning' is undefined or null",
      "cve": "kics_id:568a4d22-3517-44a6-a7ad-6a7eed88722c:80:0",
      "severity": "Medium",
      "scanner": {
        "id": "kics",
        "name": "kics"
      },
      "location": {
        "file": "s3_buckets.tf",
        "start_line": 80
      },
      "identifiers": [
        {
          "type": "kics_id",
          "name": "S3 Bucket Without Versioning",
          "value": "568a4d22-3517-44a6-a7ad-6a7eed88722c",
          "url": "https://registry.terraform.io/providers/hashicorp/aws/latest/docs/resources/s3_bucket#versioning"
        }
      ]
    },
    {
      "id": ":SKIP:",
      "category": "sast",
      "name": "Server Access Logging should be enabled on S3 Buckets so that all changes are logged and trackable",
      "description": "'logging' is undefined or null",
      "cve": "kics_id:f861041c-8c9f-4156-acfc-5e6e524f5884:32:0",
      "severity": "Medium",
      "scanner": {
        "id": "kics",
        "name": "kics"
      },
      "location": {
        "file": "s3_buckets.tf",
        "start_line": 32
      },
      "identifiers": [
        {
          "type": "kics_id",
          "name": "S3 Bucket Logging Disabled",
          "value": "f861041c-8c9f-4156-acfc-5e6e524f5884",
          "url": "https://registry.terraform.io/providers/hashicorp/aws/latest/docs/resources/s3_bucket"
        }
      ]
    },
    {
      "id": ":SKIP:",
      "category": "sast",
      "name": "All names should follow snake case pattern.",
      "description": "'bucket-with-encryption-and-logging' is not in snake case",
      "cve": "kics_id:1e434b25-8763-4b00-a5ca-ca03b7abbb66:15:0",
      "severity": "Info",
      "scanner": {
        "id": "kics",
        "name": "kics"
      },
      "location": {
        "file": "s3_buckets.tf",
        "start_line": 15
      },
      "identifiers": [
        {
          "type": "kics_id",
          "name": "Name Is Not Snake Case",
          "value": "1e434b25-8763-4b00-a5ca-ca03b7abbb66",
          "url": "https://www.terraform.io/docs/extend/best-practices/naming.html#naming"
        }
      ]
    },
    {
      "id": ":SKIP:",
      "category": "sast",
      "name": "All names should follow snake case pattern.",
      "description": "'bucket-with-encryption' is not in snake case",
      "cve": "kics_id:1e434b25-8763-4b00-a5ca-ca03b7abbb66:32:0",
      "severity": "Info",
      "scanner": {
        "id": "kics",
        "name": "kics"
      },
      "location": {
        "file": "s3_buckets.tf",
        "start_line": 32
      },
      "identifiers": [
        {
          "type": "kics_id",
          "name": "Name Is Not Snake Case",
          "value": "1e434b25-8763-4b00-a5ca-ca03b7abbb66",
          "url": "https://www.terraform.io/docs/extend/best-practices/naming.html#naming"
        }
      ]
    },
    {
      "id": ":SKIP:",
      "category": "sast",
      "name": "All names should follow snake case pattern.",
      "description": "'bucket-with-logging' is not in snake case",
      "cve": "kics_id:1e434b25-8763-4b00-a5ca-ca03b7abbb66:44:0",
      "severity": "Info",
      "scanner": {
        "id": "kics",
        "name": "kics"
      },
      "location": {
        "file": "s3_buckets.tf",
        "start_line": 44
      },
      "identifiers": [
        {
          "type": "kics_id",
          "name": "Name Is Not Snake Case",
          "value": "1e434b25-8763-4b00-a5ca-ca03b7abbb66",
          "url": "https://www.terraform.io/docs/extend/best-practices/naming.html#naming"
        }
      ]
    },
    {
      "id": ":SKIP:",
      "category": "sast",
      "name": "All names should follow snake case pattern.",
      "description": "'bucket-with-encryption-and-logging-but-public' is not in snake case",
      "cve": "kics_id:1e434b25-8763-4b00-a5ca-ca03b7abbb66:53:0",
      "severity": "Info",
      "scanner": {
        "id": "kics",
        "name": "kics"
      },
      "location": {
        "file": "s3_buckets.tf",
        "start_line": 53
      },
      "identifiers": [
        {
          "type": "kics_id",
          "name": "Name Is Not Snake Case",
          "value": "1e434b25-8763-4b00-a5ca-ca03b7abbb66",
          "url": "https://www.terraform.io/docs/extend/best-practices/naming.html#naming"
        }
      ]
    },
    {
      "id": ":SKIP:",
      "category": "sast",
      "name": "All names should follow snake case pattern.",
      "description": "'another-bucket-with-logging' is not in snake case",
      "cve": "kics_id:1e434b25-8763-4b00-a5ca-ca03b7abbb66:71:0",
      "severity": "Info",
      "scanner": {
        "id": "kics",
        "name": "kics"
      },
      "location": {
        "file": "s3_buckets.tf",
        "start_line": 71
      },
      "identifiers": [
        {
          "type": "kics_id",
          "name": "Name Is Not Snake Case",
          "value": "1e434b25-8763-4b00-a5ca-ca03b7abbb66",
          "url": "https://www.terraform.io/docs/extend/best-practices/naming.html#naming"
        }
      ]
    },
    {
      "id": ":SKIP:",
      "category": "sast",
      "name": "All names should follow snake case pattern.",
      "description": "'not-another-public-one-please' is not in snake case",
      "cve": "kics_id:1e434b25-8763-4b00-a5ca-ca03b7abbb66:80:0",
      "severity": "Info",
      "scanner": {
        "id": "kics",
        "name": "kics"
      },
      "location": {
        "file": "s3_buckets.tf",
        "start_line": 80
      },
      "identifiers": [
        {
          "type": "kics_id",
          "name": "Name Is Not Snake Case",
          "value": "1e434b25-8763-4b00-a5ca-ca03b7abbb66",
          "url": "https://www.terraform.io/docs/extend/best-practices/naming.html#naming"
        }
      ]
    },
    {
      "id": ":SKIP:",
      "category": "sast",
      "name": "All outputs should contain a valid description.",
      "description": "'description' is undefined or null",
      "cve": "kics_id:59312e8a-a64e-41e7-a252-618533dd1ea8:1:0",
      "severity": "Info",
      "scanner": {
        "id": "kics",
        "name": "kics"
      },
      "location": {
        "file": "modules/acme_bucket/outputs.tf",
        "start_line": 1
      },
      "identifiers": [
        {
          "type": "kics_id",
          "name": "Output Without Description",
          "value": "59312e8a-a64e-41e7-a252-618533dd1ea8",
          "url": "https://www.terraform.io/docs/language/values/outputs.html#description-output-value-documentation"
        }
      ]
    },
    {
      "id": ":SKIP:",
      "category": "sast",
      "name": "AWS services resource tags are an essential part of managing components. As a best practice, the field 'tags' should have additional tags defined other than 'Name'",
      "description": "aws_s3_bucket[{{bucket-with-encryption-and-logging}}].tags is undefined or null",
      "cve": "kics_id:e38a8e0a-b88b-4902-b3fe-b0fcb17d5c10:15:0",
      "severity": "Info",
      "scanner": {
        "id": "kics",
        "name": "kics"
      },
      "location": {
        "file": "s3_buckets.tf",
        "start_line": 15
      },
      "identifiers": [
        {
          "type": "kics_id",
          "name": "Resource Not Using Tags",
          "value": "e38a8e0a-b88b-4902-b3fe-b0fcb17d5c10",
          "url": "https://registry.terraform.io/providers/hashicorp/aws/latest/docs/guides/resource-tagging"
        }
      ]
    },
    {
      "id": ":SKIP:",
      "category": "sast",
      "name": "AWS services resource tags are an essential part of managing components. As a best practice, the field 'tags' should have additional tags defined other than 'Name'",
      "description": "aws_s3_bucket[{{bucket-with-encryption}}].tags is undefined or null",
      "cve": "kics_id:e38a8e0a-b88b-4902-b3fe-b0fcb17d5c10:32:0",
      "severity": "Info",
      "scanner": {
        "id": "kics",
        "name": "kics"
      },
      "location": {
        "file": "s3_buckets.tf",
        "start_line": 32
      },
      "identifiers": [
        {
          "type": "kics_id",
          "name": "Resource Not Using Tags",
          "value": "e38a8e0a-b88b-4902-b3fe-b0fcb17d5c10",
          "url": "https://registry.terraform.io/providers/hashicorp/aws/latest/docs/guides/resource-tagging"
        }
      ]
    },
    {
      "id": ":SKIP:",
      "category": "sast",
      "name": "AWS services resource tags are an essential part of managing components. As a best practice, the field 'tags' should have additional tags defined other than 'Name'",
      "description": "aws_s3_bucket[{{bucket-with-logging}}].tags is undefined or null",
      "cve": "kics_id:e38a8e0a-b88b-4902-b3fe-b0fcb17d5c10:44:0",
      "severity": "Info",
      "scanner": {
        "id": "kics",
        "name": "kics"
      },
      "location": {
        "file": "s3_buckets.tf",
        "start_line": 44
      },
      "identifiers": [
        {
          "type": "kics_id",
          "name": "Resource Not Using Tags",
          "value": "e38a8e0a-b88b-4902-b3fe-b0fcb17d5c10",
          "url": "https://registry.terraform.io/providers/hashicorp/aws/latest/docs/guides/resource-tagging"
        }
      ]
    },
    {
      "id": ":SKIP:",
      "category": "sast",
      "name": "AWS services resource tags are an essential part of managing components. As a best practice, the field 'tags' should have additional tags defined other than 'Name'",
      "description": "aws_s3_bucket[{{bucket-with-encryption-and-logging-but-public}}].tags is undefined or null",
      "cve": "kics_id:e38a8e0a-b88b-4902-b3fe-b0fcb17d5c10:53:0",
      "severity": "Info",
      "scanner": {
        "id": "kics",
        "name": "kics"
      },
      "location": {
        "file": "s3_buckets.tf",
        "start_line": 53
      },
      "identifiers": [
        {
          "type": "kics_id",
          "name": "Resource Not Using Tags",
          "value": "e38a8e0a-b88b-4902-b3fe-b0fcb17d5c10",
          "url": "https://registry.terraform.io/providers/hashicorp/aws/latest/docs/guides/resource-tagging"
        }
      ]
    },
    {
      "id": ":SKIP:",
      "category": "sast",
      "name": "AWS services resource tags are an essential part of managing components. As a best practice, the field 'tags' should have additional tags defined other than 'Name'",
      "description": "aws_s3_bucket[{{acme_bucket}}].tags is undefined or null",
      "cve": "kics_id:e38a8e0a-b88b-4902-b3fe-b0fcb17d5c10:5:0",
      "severity": "Info",
      "scanner": {
        "id": "kics",
        "name": "kics"
      },
      "location": {
        "file": "modules/acme_bucket/main.tf",
        "start_line": 5
      },
      "identifiers": [
        {
          "type": "kics_id",
          "name": "Resource Not Using Tags",
          "value": "e38a8e0a-b88b-4902-b3fe-b0fcb17d5c10",
          "url": "https://registry.terraform.io/providers/hashicorp/aws/latest/docs/guides/resource-tagging"
        }
      ]
    },
    {
      "id": ":SKIP:",
      "category": "sast",
      "name": "AWS services resource tags are an essential part of managing components. As a best practice, the field 'tags' should have additional tags defined other than 'Name'",
      "description": "aws_s3_bucket[{{another-bucket-with-logging}}].tags is undefined or null",
      "cve": "kics_id:e38a8e0a-b88b-4902-b3fe-b0fcb17d5c10:71:0",
      "severity": "Info",
      "scanner": {
        "id": "kics",
        "name": "kics"
      },
      "location": {
        "file": "s3_buckets.tf",
        "start_line": 71
      },
      "identifiers": [
        {
          "type": "kics_id",
          "name": "Resource Not Using Tags",
          "value": "e38a8e0a-b88b-4902-b3fe-b0fcb17d5c10",
          "url": "https://registry.terraform.io/providers/hashicorp/aws/latest/docs/guides/resource-tagging"
        }
      ]
    },
    {
      "id": ":SKIP:",
      "category": "sast",
      "name": "AWS services resource tags are an essential part of managing components. As a best practice, the field 'tags' should have additional tags defined other than 'Name'",
      "description": "aws_s3_bucket[{{not-another-public-one-please}}].tags is undefined or null",
      "cve": "kics_id:e38a8e0a-b88b-4902-b3fe-b0fcb17d5c10:80:0",
      "severity": "Info",
      "scanner": {
        "id": "kics",
        "name": "kics"
      },
      "location": {
        "file": "s3_buckets.tf",
        "start_line": 80
      },
      "identifiers": [
        {
          "type": "kics_id",
          "name": "Resource Not Using Tags",
          "value": "e38a8e0a-b88b-4902-b3fe-b0fcb17d5c10",
          "url": "https://registry.terraform.io/providers/hashicorp/aws/latest/docs/guides/resource-tagging"
        }
      ]
    },
    {
      "id": ":SKIP:",
      "category": "sast",
      "name": "IAM Access Analyzer should be enabled and configured to continuously monitor resource permissions",
      "description": "'aws_accessanalyzer_analyzer' is undefined",
      "cve": "kics_id:e592a0c5-5bdb-414c-9066-5dba7cdea370:15:0",
      "severity": "Info",
      "scanner": {
        "id": "kics",
        "name": "kics"
      },
      "location": {
        "file": "s3_buckets.tf",
        "start_line": 15
      },
      "identifiers": [
        {
          "type": "kics_id",
          "name": "IAM Access Analyzer Not Enabled",
          "value": "e592a0c5-5bdb-414c-9066-5dba7cdea370",
          "url": "https://registry.terraform.io/providers/hashicorp/aws/latest/docs/resources/accessanalyzer_analyzer"
        }
      ]
    },
    {
      "id": ":SKIP:",
      "category": "sast",
      "name": "IAM Access Analyzer should be enabled and configured to continuously monitor resource permissions",
      "description": "'aws_accessanalyzer_analyzer' is undefined",
      "cve": "kics_id:e592a0c5-5bdb-414c-9066-5dba7cdea370:5:0",
      "severity": "Info",
      "scanner": {
        "id": "kics",
        "name": "kics"
      },
      "location": {
        "file": "modules/acme_bucket/main.tf",
        "start_line": 5
      },
      "identifiers": [
        {
          "type": "kics_id",
          "name": "IAM Access Analyzer Not Enabled",
          "value": "e592a0c5-5bdb-414c-9066-5dba7cdea370",
          "url": "https://registry.terraform.io/providers/hashicorp/aws/latest/docs/resources/accessanalyzer_analyzer"
        }
      ]
    },
    {
      "id": ":SKIP:",
      "category": "sast",
      "name": "All variables should contain a valid type.",
      "description": "'type' is undefined or null",
      "cve": "kics_id:fc5109bf-01fd-49fb-8bde-4492b543c34a:10:0",
      "severity": "Info",
      "scanner": {
        "id": "kics",
        "name": "kics"
      },
      "location": {
        "file": "modules/acme_bucket/variables.tf",
        "start_line": 10
      },
      "identifiers": [
        {
          "type": "kics_id",
          "name": "Variable Without Type",
          "value": "fc5109bf-01fd-49fb-8bde-4492b543c34a",
          "url": "https://www.terraform.io/docs/language/values/variables.html#input-variable-documentation"
        }
      ]
    },
    {
      "id": ":SKIP:",
      "category": "sast",
      "name": "All variables should contain a valid type.",
      "description": "'type' is undefined or null",
      "cve": "kics_id:fc5109bf-01fd-49fb-8bde-4492b543c34a:1:0",
      "severity": "Info",
      "scanner": {
        "id": "kics",
        "name": "kics"
      },
      "location": {
        "file": "modules/acme_bucket/variables.tf",
        "start_line": 1
      },
      "identifiers": [
        {
          "type": "kics_id",
          "name": "Variable Without Type",
          "value": "fc5109bf-01fd-49fb-8bde-4492b543c34a",
          "url": "https://www.terraform.io/docs/language/values/variables.html#input-variable-documentation"
        }
      ]
    },
    {
      "id": ":SKIP:",
      "category": "sast",
      "name": "All variables should contain a valid type.",
      "description": "'type' is undefined or null",
      "cve": "kics_id:fc5109bf-01fd-49fb-8bde-4492b543c34a:1:0",
      "severity": "Info",
      "scanner": {
        "id": "kics",
        "name": "kics"
      },
      "location": {
        "file": "variables.tf",
        "start_line": 1
      },
      "identifiers": [
        {
          "type": "kics_id",
          "name": "Variable Without Type",
          "value": "fc5109bf-01fd-49fb-8bde-4492b543c34a",
          "url": "https://www.terraform.io/docs/language/values/variables.html#input-variable-documentation"
        }
      ]
    },
    {
      "id": ":SKIP:",
      "category": "sast",
      "name": "All variables should contain a valid type.",
      "description": "'type' is undefined or null",
      "cve": "kics_id:fc5109bf-01fd-49fb-8bde-4492b543c34a:5:0",
      "severity": "Info",
      "scanner": {
        "id": "kics",
        "name": "kics"
      },
      "location": {
        "file": "modules/acme_bucket/variables.tf",
        "start_line": 5
      },
      "identifiers": [
        {
          "type": "kics_id",
          "name": "Variable Without Type",
          "value": "fc5109bf-01fd-49fb-8bde-4492b543c34a",
          "url": "https://www.terraform.io/docs/language/values/variables.html#input-variable-documentation"
        }
      ]
    }
  ],
  "dependency_files": [],
  "scan": {
    "analyzer": {
      "id": "kics",
      "name": "kics",
      "url": "https://gitlab.com/gitlab-org/security-products/analyzers/kics",
      "vendor": {
        "name": "GitLab"
      },
      "version": ":SKIP:"
    },
    "scanner": {
      "id": "kics",
      "name": "kics",
      "url": "https://github.com/Checkmarx/kics",
      "vendor": {
        "name": "GitLab"
      },
      "version": ":SKIP:"
    },
    "type": "sast",
    "start_time": ":SKIP:",
    "end_time": ":SKIP:",
    "status": "success"
  }
}
